127.0.0.1 - - [09/Nov/2021:11:42:09 -0300] "GET / HTTP/1.1" 404 994
0:0:0:0:0:0:0:1 - - [09/Nov/2021:11:42:19 -0300] "GET /rasz/app/login HTTP/1.1" 200 4970
0:0:0:0:0:0:0:1 - - [09/Nov/2021:11:42:19 -0300] "GET /rasz/resources/styles/rasz/dist/js/app.min.js HTTP/1.1" 302 -
0:0:0:0:0:0:0:1 - - [09/Nov/2021:11:42:19 -0300] "GET /rasz/resources/styles/rasz/dist/js/app.min.js HTTP/1.1" 302 -
0:0:0:0:0:0:0:1 - - [09/Nov/2021:11:42:19 -0300] "GET /rasz/app/erro_404?execution=e1s1 HTTP/1.1" 302 -
0:0:0:0:0:0:0:1 - - [09/Nov/2021:11:42:19 -0300] "GET /rasz/app/erro_404?execution=e1s1 HTTP/1.1" 302 -
0:0:0:0:0:0:0:1 - - [09/Nov/2021:11:42:19 -0300] "GET /rasz/app/login HTTP/1.1" 200 4970
0:0:0:0:0:0:0:1 - - [09/Nov/2021:11:42:19 -0300] "GET /rasz/app/login HTTP/1.1" 200 4970
0:0:0:0:0:0:0:1 - - [09/Nov/2021:11:42:21 -0300] "POST /rasz/app/j_spring_security_check HTTP/1.1" 302 -
0:0:0:0:0:0:0:1 - - [09/Nov/2021:11:42:21 -0300] "GET /rasz/app/home HTTP/1.1" 302 -
0:0:0:0:0:0:0:1 - - [09/Nov/2021:11:42:21 -0300] "GET /rasz/app/home?execution=e2s1 HTTP/1.1" 200 7676
0:0:0:0:0:0:0:1 - - [09/Nov/2021:11:42:24 -0300] "GET /rasz/app/set_change_password HTTP/1.1" 302 -
0:0:0:0:0:0:0:1 - - [09/Nov/2021:11:42:24 -0300] "GET /rasz/app/set_change_password?execution=e3s1 HTTP/1.1" 200 10564
0:0:0:0:0:0:0:1 - - [09/Nov/2021:11:42:31 -0300] "POST /rasz/app/set_change_password?execution=e3s1 HTTP/1.1" 200 185
127.0.0.1 - - [09/Nov/2021:11:44:33 -0300] "GET / HTTP/1.1" 404 994
0:0:0:0:0:0:0:1 - - [09/Nov/2021:11:46:36 -0300] "GET /rasz/app/set_change_password?execution=e3s1 HTTP/1.1" 302 -
0:0:0:0:0:0:0:1 - - [09/Nov/2021:11:46:36 -0300] "GET /rasz/app/login HTTP/1.1" 200 4970
0:0:0:0:0:0:0:1 - - [09/Nov/2021:11:46:36 -0300] "GET /rasz/resources/styles/rasz/dist/img/favicon.png HTTP/1.1" 200 2987
0:0:0:0:0:0:0:1 - - [09/Nov/2021:11:46:36 -0300] "GET /rasz/resources/styles/rasz/dist/css/skins/skin-rasz.css HTTP/1.1" 200 10330
0:0:0:0:0:0:0:1 - - [09/Nov/2021:11:46:36 -0300] "GET /rasz/resources/styles/rasz/dist/css/AdminLTE.css HTTP/1.1" 200 100217
0:0:0:0:0:0:0:1 - - [09/Nov/2021:11:46:36 -0300] "GET /rasz/resources/styles/rasz/bootstrap/css/bootstrap.min.css HTTP/1.1" 200 117295
0:0:0:0:0:0:0:1 - - [09/Nov/2021:11:46:36 -0300] "GET /rasz/resources/styles/rasz/dist/img/hg-logo.png HTTP/1.1" 200 10150
0:0:0:0:0:0:0:1 - - [09/Nov/2021:11:46:36 -0300] "GET /rasz/resources/images/login.png HTTP/1.1" 200 3921
0:0:0:0:0:0:0:1 - - [09/Nov/2021:11:46:36 -0300] "GET /rasz/resources/styles/rasz/bootstrap/js/bootstrap.min.js HTTP/1.1" 200 35951
0:0:0:0:0:0:0:1 - - [09/Nov/2021:11:46:36 -0300] "GET /rasz/resources/styles/rasz/dist/js/app.min.js HTTP/1.1" 302 -
0:0:0:0:0:0:0:1 - - [09/Nov/2021:11:46:36 -0300] "GET /rasz/app/erro_404?execution=e1s1 HTTP/1.1" 302 -
0:0:0:0:0:0:0:1 - - [09/Nov/2021:11:46:36 -0300] "GET /rasz/app/login HTTP/1.1" 200 4970
0:0:0:0:0:0:0:1 - - [09/Nov/2021:11:46:38 -0300] "POST /rasz/app/j_spring_security_check HTTP/1.1" 302 -
0:0:0:0:0:0:0:1 - - [09/Nov/2021:11:46:38 -0300] "GET /rasz/app/home HTTP/1.1" 302 -
0:0:0:0:0:0:0:1 - - [09/Nov/2021:11:46:39 -0300] "GET /rasz/app/home?execution=e2s1 HTTP/1.1" 200 7676
0:0:0:0:0:0:0:1 - - [09/Nov/2021:11:46:43 -0300] "GET /rasz/app/set_change_password HTTP/1.1" 302 -
0:0:0:0:0:0:0:1 - - [09/Nov/2021:11:46:44 -0300] "GET /rasz/app/set_change_password?execution=e3s1 HTTP/1.1" 200 10564
0:0:0:0:0:0:0:1 - - [09/Nov/2021:11:46:49 -0300] "POST /rasz/app/set_change_password?execution=e3s1 HTTP/1.1" 200 185
127.0.0.1 - - [09/Nov/2021:11:48:30 -0300] "GET / HTTP/1.1" 404 994
127.0.0.1 - - [09/Nov/2021:11:48:30 -0300] "POST /rasz/app/set_change_password?execution=e3s1 HTTP/1.1" 302 -
127.0.0.1 - - [09/Nov/2021:11:48:30 -0300] "GET /rasz/app/login HTTP/1.1" 200 190
0:0:0:0:0:0:0:1 - - [09/Nov/2021:11:49:36 -0300] "GET /rasz/app/set_change_password?execution=e3s1 HTTP/1.1" 302 -
0:0:0:0:0:0:0:1 - - [09/Nov/2021:11:49:36 -0300] "GET /rasz/app/login HTTP/1.1" 200 4970
0:0:0:0:0:0:0:1 - - [09/Nov/2021:11:49:36 -0300] "GET /rasz/resources/styles/rasz/dist/css/skins/skin-rasz.css HTTP/1.1" 200 10330
0:0:0:0:0:0:0:1 - - [09/Nov/2021:11:49:36 -0300] "GET /rasz/resources/styles/rasz/bootstrap/css/bootstrap.min.css HTTP/1.1" 200 117295
0:0:0:0:0:0:0:1 - - [09/Nov/2021:11:49:36 -0300] "GET /rasz/resources/styles/rasz/dist/css/AdminLTE.css HTTP/1.1" 200 100217
0:0:0:0:0:0:0:1 - - [09/Nov/2021:11:49:36 -0300] "GET /rasz/resources/styles/rasz/dist/img/favicon.png HTTP/1.1" 200 2987
0:0:0:0:0:0:0:1 - - [09/Nov/2021:11:49:36 -0300] "GET /rasz/resources/styles/rasz/bootstrap/js/bootstrap.min.js HTTP/1.1" 200 35951
0:0:0:0:0:0:0:1 - - [09/Nov/2021:11:49:36 -0300] "GET /rasz/resources/styles/rasz/dist/img/hg-logo.png HTTP/1.1" 200 10150
0:0:0:0:0:0:0:1 - - [09/Nov/2021:11:49:36 -0300] "GET /rasz/resources/images/login.png HTTP/1.1" 200 3921
0:0:0:0:0:0:0:1 - - [09/Nov/2021:11:49:37 -0300] "GET /rasz/resources/styles/rasz/dist/js/app.min.js HTTP/1.1" 302 -
0:0:0:0:0:0:0:1 - - [09/Nov/2021:11:49:37 -0300] "GET /rasz/app/erro_404?execution=e1s1 HTTP/1.1" 302 -
0:0:0:0:0:0:0:1 - - [09/Nov/2021:11:49:37 -0300] "GET /rasz/app/login HTTP/1.1" 200 4970
0:0:0:0:0:0:0:1 - - [09/Nov/2021:11:49:39 -0300] "POST /rasz/app/j_spring_security_check HTTP/1.1" 302 -
0:0:0:0:0:0:0:1 - - [09/Nov/2021:11:49:39 -0300] "GET /rasz/app/home HTTP/1.1" 302 -
0:0:0:0:0:0:0:1 - - [09/Nov/2021:11:49:39 -0300] "GET /rasz/app/home?execution=e2s1 HTTP/1.1" 200 7676
0:0:0:0:0:0:0:1 - - [09/Nov/2021:11:49:42 -0300] "GET /rasz/app/set_change_password HTTP/1.1" 302 -
0:0:0:0:0:0:0:1 - - [09/Nov/2021:11:49:43 -0300] "GET /rasz/app/set_change_password?execution=e3s1 HTTP/1.1" 200 10564
0:0:0:0:0:0:0:1 - - [09/Nov/2021:11:49:45 -0300] "POST /rasz/app/set_change_password?execution=e3s1 HTTP/1.1" 200 185
0:0:0:0:0:0:0:1 - - [09/Nov/2021:11:49:52 -0300] "POST /rasz/app/set_change_password?execution=e3s1 HTTP/1.1" 200 170
0:0:0:0:0:0:0:1 - - [09/Nov/2021:11:49:52 -0300] "GET /rasz/app/set_change_password?execution=e3s2 HTTP/1.1" 200 12522
0:0:0:0:0:0:0:1 - - [09/Nov/2021:11:49:52 -0300] "GET /rasz/resources/images/seta_esquerda16x16.png HTTP/1.1" 200 565
0:0:0:0:0:0:0:1 - - [09/Nov/2021:11:49:59 -0300] "POST /rasz/app/set_change_password?execution=e3s2 HTTP/1.1" 500 11698
0:0:0:0:0:0:0:1 - - [09/Nov/2021:11:50:07 -0300] "GET /rasz/app/set_change_password HTTP/1.1" 302 -
0:0:0:0:0:0:0:1 - - [09/Nov/2021:11:50:07 -0300] "GET /rasz/app/set_change_password?execution=e4s1 HTTP/1.1" 200 10580
0:0:0:0:0:0:0:1 - - [09/Nov/2021:11:50:14 -0300] "POST /rasz/app/set_change_password?execution=e4s1 HTTP/1.1" 200 185
0:0:0:0:0:0:0:1 - - [09/Nov/2021:11:50:17 -0300] "POST /rasz/app/set_change_password?execution=e4s1 HTTP/1.1" 200 3872
0:0:0:0:0:0:0:1 - - [09/Nov/2021:11:50:29 -0300] "POST /rasz/app/set_change_password?execution=e4s1 HTTP/1.1" 200 185
0:0:0:0:0:0:0:1 - - [09/Nov/2021:11:50:29 -0300] "POST /rasz/app/set_change_password?execution=e4s1 HTTP/1.1" 200 3871
0:0:0:0:0:0:0:1 - - [09/Nov/2021:11:50:30 -0300] "POST /rasz/app/set_change_password?execution=e4s1 HTTP/1.1" 200 3871
0:0:0:0:0:0:0:1 - - [09/Nov/2021:11:50:53 -0300] "POST /rasz/app/set_change_password?execution=e4s1 HTTP/1.1" 200 185
0:0:0:0:0:0:0:1 - - [09/Nov/2021:11:50:54 -0300] "POST /rasz/app/set_change_password?execution=e4s1 HTTP/1.1" 200 170
0:0:0:0:0:0:0:1 - - [09/Nov/2021:11:50:54 -0300] "GET /rasz/app/set_change_password?execution=e4s2 HTTP/1.1" 200 12522
127.0.0.1 - - [09/Nov/2021:11:52:41 -0300] "GET / HTTP/1.1" 404 994
0:0:0:0:0:0:0:1 - - [09/Nov/2021:11:52:55 -0300] "GET /rasz/app/set_change_password?execution=e4s2 HTTP/1.1" 200 12522
0:0:0:0:0:0:0:1 - - [09/Nov/2021:11:52:55 -0300] "GET /rasz/resources/styles/rasz/dist/css/skins/skin-rasz.css HTTP/1.1" 200 10330
0:0:0:0:0:0:0:1 - - [09/Nov/2021:11:52:55 -0300] "GET /rasz/resources/styles/rasz/bootstrap/css/bootstrap.min.css HTTP/1.1" 200 117295
0:0:0:0:0:0:0:1 - - [09/Nov/2021:11:52:55 -0300] "GET /rasz/resources/styles/rasz/dist/css/AdminLTE.css HTTP/1.1" 200 100217
0:0:0:0:0:0:0:1 - - [09/Nov/2021:11:52:55 -0300] "GET /rasz/app/javax.faces.resource/jquery/jquery.js?ln=primefaces&v=5.3 HTTP/1.1" 200 107783
0:0:0:0:0:0:0:1 - - [09/Nov/2021:11:52:55 -0300] "GET /rasz/resources/styles/estilo.css HTTP/1.1" 200 10883
0:0:0:0:0:0:0:1 - - [09/Nov/2021:11:52:56 -0300] "GET /rasz/app/javax.faces.resource/theme.css?ln=primefaces-bootstrap HTTP/1.1" 200 34898
0:0:0:0:0:0:0:1 - - [09/Nov/2021:11:52:56 -0300] "GET /rasz/app/javax.faces.resource/calendario_pt_BR.js?ln=js HTTP/1.1" 200 925
0:0:0:0:0:0:0:1 - - [09/Nov/2021:11:52:56 -0300] "GET /rasz/app/javax.faces.resource/jquery/jquery-plugins.js?ln=primefaces&v=5.3 HTTP/1.1" 200 243000
0:0:0:0:0:0:0:1 - - [09/Nov/2021:11:52:56 -0300] "GET /rasz/app/javax.faces.resource/primefaces.js?ln=primefaces&v=5.3 HTTP/1.1" 200 350170
0:0:0:0:0:0:0:1 - - [09/Nov/2021:11:52:56 -0300] "GET /rasz/app/javax.faces.resource/primefaces.css?ln=primefaces&v=5.3 HTTP/1.1" 200 70743
0:0:0:0:0:0:0:1 - - [09/Nov/2021:11:52:56 -0300] "GET /rasz/resources/styles/rasz/bootstrap/js/bootstrap.min.js HTTP/1.1" 200 35951
0:0:0:0:0:0:0:1 - - [09/Nov/2021:11:52:56 -0300] "GET /rasz/resources/styles/rasz/dist/js/app.js HTTP/1.1" 200 20841
0:0:0:0:0:0:0:1 - - [09/Nov/2021:11:52:56 -0300] "GET /rasz/resources/styles/rasz/dist/img/favicon.png HTTP/1.1" 200 2987
0:0:0:0:0:0:0:1 - - [09/Nov/2021:11:52:56 -0300] "GET /rasz/resources/styles/rasz/dist/img/hg-logo.png HTTP/1.1" 200 10150
0:0:0:0:0:0:0:1 - - [09/Nov/2021:11:52:56 -0300] "GET /rasz/resources/styles/rasz/dist/img/logout.png HTTP/1.1" 200 2100
0:0:0:0:0:0:0:1 - - [09/Nov/2021:11:52:56 -0300] "GET /rasz/resources/styles/rasz/dist/img/user.png HTTP/1.1" 200 13950
0:0:0:0:0:0:0:1 - - [09/Nov/2021:11:52:56 -0300] "GET /rasz/resources/styles/rasz/dist/img/user_white.png HTTP/1.1" 200 5751
0:0:0:0:0:0:0:1 - - [09/Nov/2021:11:52:56 -0300] "GET /rasz/app/javax.faces.resource/spacer/dot_clear.gif?ln=primefaces&v=5.3 HTTP/1.1" 200 42
0:0:0:0:0:0:0:1 - - [09/Nov/2021:11:52:56 -0300] "GET /rasz/resources/images/save.png HTTP/1.1" 200 268
0:0:0:0:0:0:0:1 - - [09/Nov/2021:11:52:56 -0300] "GET /rasz/resources/images/seta_esquerda16x16.png HTTP/1.1" 200 565
0:0:0:0:0:0:0:1 - - [09/Nov/2021:11:52:56 -0300] "GET /rasz/resources/styles/rasz/dist/img/favicon_white.png HTTP/1.1" 200 545
0:0:0:0:0:0:0:1 - - [09/Nov/2021:11:52:58 -0300] "GET /rasz/app/set_change_password HTTP/1.1" 302 -
0:0:0:0:0:0:0:1 - - [09/Nov/2021:11:52:58 -0300] "GET /rasz/app/set_change_password?execution=e5s1 HTTP/1.1" 200 10564
0:0:0:0:0:0:0:1 - - [09/Nov/2021:11:53:03 -0300] "POST /rasz/app/set_change_password?execution=e5s1 HTTP/1.1" 200 185
0:0:0:0:0:0:0:1 - - [09/Nov/2021:11:53:03 -0300] "POST /rasz/app/set_change_password?execution=e5s1 HTTP/1.1" 200 4007
0:0:0:0:0:0:0:1 - - [09/Nov/2021:11:53:03 -0300] "GET /rasz/app/javax.faces.resource/messages/messages.png?ln=primefaces&v=5.3 HTTP/1.1" 200 27245
0:0:0:0:0:0:0:1 - - [09/Nov/2021:11:53:10 -0300] "POST /rasz/app/set_change_password?execution=e5s1 HTTP/1.1" 200 185
0:0:0:0:0:0:0:1 - - [09/Nov/2021:11:53:13 -0300] "POST /rasz/app/set_change_password?execution=e5s1 HTTP/1.1" 200 185
0:0:0:0:0:0:0:1 - - [09/Nov/2021:11:53:13 -0300] "POST /rasz/app/set_change_password?execution=e5s1 HTTP/1.1" 200 4008
0:0:0:0:0:0:0:1 - - [09/Nov/2021:11:53:32 -0300] "POST /rasz/app/set_change_password?execution=e5s1 HTTP/1.1" 200 185
0:0:0:0:0:0:0:1 - - [09/Nov/2021:11:53:32 -0300] "POST /rasz/app/set_change_password?execution=e5s1 HTTP/1.1" 200 170
0:0:0:0:0:0:0:1 - - [09/Nov/2021:11:53:33 -0300] "GET /rasz/app/set_change_password?execution=e5s2 HTTP/1.1" 200 12522
0:0:0:0:0:0:0:1 - - [09/Nov/2021:11:53:47 -0300] "GET /rasz/app/set_change_password HTTP/1.1" 302 -
0:0:0:0:0:0:0:1 - - [09/Nov/2021:11:53:47 -0300] "GET /rasz/app/set_change_password?execution=e6s1 HTTP/1.1" 200 10580
0:0:0:0:0:0:0:1 - - [09/Nov/2021:12:00:57 -0300] "GET /rasz/app/set_change_password?execution=e6s1 HTTP/1.1" 200 10580
0:0:0:0:0:0:0:1 - - [09/Nov/2021:12:00:57 -0300] "GET /rasz/resources/styles/rasz/dist/css/skins/skin-rasz.css HTTP/1.1" 200 10330
0:0:0:0:0:0:0:1 - - [09/Nov/2021:12:00:57 -0300] "GET /rasz/resources/styles/rasz/bootstrap/css/bootstrap.min.css HTTP/1.1" 200 117295
0:0:0:0:0:0:0:1 - - [09/Nov/2021:12:00:57 -0300] "GET /rasz/resources/styles/rasz/dist/css/AdminLTE.css HTTP/1.1" 200 100217
0:0:0:0:0:0:0:1 - - [09/Nov/2021:12:00:57 -0300] "GET /rasz/app/javax.faces.resource/jquery/jquery.js?ln=primefaces&v=5.3 HTTP/1.1" 200 107783
0:0:0:0:0:0:0:1 - - [09/Nov/2021:12:00:57 -0300] "GET /rasz/resources/styles/estilo.css HTTP/1.1" 200 10883
0:0:0:0:0:0:0:1 - - [09/Nov/2021:12:00:57 -0300] "GET /rasz/app/javax.faces.resource/theme.css?ln=primefaces-bootstrap HTTP/1.1" 200 34898
0:0:0:0:0:0:0:1 - - [09/Nov/2021:12:00:57 -0300] "GET /rasz/app/javax.faces.resource/jquery/jquery-plugins.js?ln=primefaces&v=5.3 HTTP/1.1" 200 243000
0:0:0:0:0:0:0:1 - - [09/Nov/2021:12:00:57 -0300] "GET /rasz/app/javax.faces.resource/calendario_pt_BR.js?ln=js HTTP/1.1" 200 925
0:0:0:0:0:0:0:1 - - [09/Nov/2021:12:00:57 -0300] "GET /rasz/app/javax.faces.resource/primefaces.js?ln=primefaces&v=5.3 HTTP/1.1" 200 350170
0:0:0:0:0:0:0:1 - - [09/Nov/2021:12:00:57 -0300] "GET /rasz/app/javax.faces.resource/primefaces.css?ln=primefaces&v=5.3 HTTP/1.1" 200 70743
0:0:0:0:0:0:0:1 - - [09/Nov/2021:12:00:57 -0300] "GET /rasz/resources/styles/rasz/bootstrap/js/bootstrap.min.js HTTP/1.1" 200 35951
0:0:0:0:0:0:0:1 - - [09/Nov/2021:12:00:57 -0300] "GET /rasz/resources/styles/rasz/dist/js/app.js HTTP/1.1" 200 20841
0:0:0:0:0:0:0:1 - - [09/Nov/2021:12:00:57 -0300] "GET /rasz/resources/styles/rasz/dist/img/favicon.png HTTP/1.1" 200 2987
0:0:0:0:0:0:0:1 - - [09/Nov/2021:12:00:57 -0300] "GET /rasz/resources/styles/rasz/dist/img/hg-logo.png HTTP/1.1" 200 10150
0:0:0:0:0:0:0:1 - - [09/Nov/2021:12:00:57 -0300] "GET /rasz/resources/styles/rasz/dist/img/logout.png HTTP/1.1" 200 2100
0:0:0:0:0:0:0:1 - - [09/Nov/2021:12:00:57 -0300] "GET /rasz/resources/styles/rasz/dist/img/user.png HTTP/1.1" 200 13950
0:0:0:0:0:0:0:1 - - [09/Nov/2021:12:00:57 -0300] "GET /rasz/resources/styles/rasz/dist/img/user_white.png HTTP/1.1" 200 5751
0:0:0:0:0:0:0:1 - - [09/Nov/2021:12:00:57 -0300] "GET /rasz/app/javax.faces.resource/spacer/dot_clear.gif?ln=primefaces&v=5.3 HTTP/1.1" 200 42
0:0:0:0:0:0:0:1 - - [09/Nov/2021:12:00:58 -0300] "GET /rasz/resources/images/iconehome.png HTTP/1.1" 200 459
0:0:0:0:0:0:0:1 - - [09/Nov/2021:12:00:58 -0300] "GET /rasz/resources/images/adicionar.png HTTP/1.1" 200 314
0:0:0:0:0:0:0:1 - - [09/Nov/2021:12:00:58 -0300] "GET /rasz/resources/styles/rasz/dist/img/favicon_white.png HTTP/1.1" 200 545
0:0:0:0:0:0:0:1 - - [09/Nov/2021:12:01:01 -0300] "GET /rasz/app/set_change_password HTTP/1.1" 302 -
0:0:0:0:0:0:0:1 - - [09/Nov/2021:12:01:01 -0300] "GET /rasz/app/set_change_password?execution=e7s1 HTTP/1.1" 200 10580
0:0:0:0:0:0:0:1 - - [09/Nov/2021:12:01:05 -0300] "POST /rasz/app/set_change_password?execution=e7s1 HTTP/1.1" 200 185
0:0:0:0:0:0:0:1 - - [09/Nov/2021:12:01:05 -0300] "POST /rasz/app/set_change_password?execution=e7s1 HTTP/1.1" 200 170
0:0:0:0:0:0:0:1 - - [09/Nov/2021:12:01:05 -0300] "GET /rasz/app/set_change_password?execution=e7s2 HTTP/1.1" 200 10086
0:0:0:0:0:0:0:1 - - [09/Nov/2021:12:01:34 -0300] "GET /rasz/app/set_change_password?execution=e7s2 HTTP/1.1" 200 11579
0:0:0:0:0:0:0:1 - - [09/Nov/2021:12:01:34 -0300] "GET /rasz/resources/styles/rasz/bootstrap/css/bootstrap.min.css HTTP/1.1" 200 117295
0:0:0:0:0:0:0:1 - - [09/Nov/2021:12:01:34 -0300] "GET /rasz/app/javax.faces.resource/jquery/jquery.js?ln=primefaces&v=5.3 HTTP/1.1" 200 107783
0:0:0:0:0:0:0:1 - - [09/Nov/2021:12:01:34 -0300] "GET /rasz/resources/styles/rasz/dist/css/AdminLTE.css HTTP/1.1" 200 100217
0:0:0:0:0:0:0:1 - - [09/Nov/2021:12:01:34 -0300] "GET /rasz/app/javax.faces.resource/jquery/jquery-plugins.js?ln=primefaces&v=5.3 HTTP/1.1" 200 243000
0:0:0:0:0:0:0:1 - - [09/Nov/2021:12:01:34 -0300] "GET /rasz/app/javax.faces.resource/primefaces.js?ln=primefaces&v=5.3 HTTP/1.1" 200 350170
0:0:0:0:0:0:0:1 - - [09/Nov/2021:12:01:34 -0300] "GET /rasz/app/javax.faces.resource/theme.css?ln=primefaces-bootstrap HTTP/1.1" 200 34898
0:0:0:0:0:0:0:1 - - [09/Nov/2021:12:01:34 -0300] "GET /rasz/resources/styles/estilo.css HTTP/1.1" 200 10883
0:0:0:0:0:0:0:1 - - [09/Nov/2021:12:01:34 -0300] "GET /rasz/resources/styles/rasz/dist/css/skins/skin-rasz.css HTTP/1.1" 200 10330
0:0:0:0:0:0:0:1 - - [09/Nov/2021:12:01:34 -0300] "GET /rasz/app/javax.faces.resource/calendario_pt_BR.js?ln=js HTTP/1.1" 200 925
0:0:0:0:0:0:0:1 - - [09/Nov/2021:12:01:34 -0300] "GET /rasz/app/javax.faces.resource/primefaces.css?ln=primefaces&v=5.3 HTTP/1.1" 200 70743
0:0:0:0:0:0:0:1 - - [09/Nov/2021:12:01:34 -0300] "GET /rasz/resources/styles/rasz/bootstrap/js/bootstrap.min.js HTTP/1.1" 200 35951
0:0:0:0:0:0:0:1 - - [09/Nov/2021:12:01:34 -0300] "GET /rasz/resources/styles/rasz/dist/js/app.js HTTP/1.1" 200 20841
0:0:0:0:0:0:0:1 - - [09/Nov/2021:12:01:34 -0300] "GET /rasz/resources/styles/rasz/dist/img/favicon.png HTTP/1.1" 200 2987
0:0:0:0:0:0:0:1 - - [09/Nov/2021:12:01:34 -0300] "GET /rasz/resources/styles/rasz/dist/img/hg-logo.png HTTP/1.1" 200 10150
0:0:0:0:0:0:0:1 - - [09/Nov/2021:12:01:34 -0300] "GET /rasz/resources/styles/rasz/dist/img/logout.png HTTP/1.1" 200 2100
0:0:0:0:0:0:0:1 - - [09/Nov/2021:12:01:34 -0300] "GET /rasz/resources/styles/rasz/dist/img/user.png HTTP/1.1" 200 13950
0:0:0:0:0:0:0:1 - - [09/Nov/2021:12:01:34 -0300] "GET /rasz/resources/styles/rasz/dist/img/user_white.png HTTP/1.1" 200 5751
0:0:0:0:0:0:0:1 - - [09/Nov/2021:12:01:34 -0300] "GET /rasz/app/javax.faces.resource/spacer/dot_clear.gif?ln=primefaces&v=5.3 HTTP/1.1" 200 42
0:0:0:0:0:0:0:1 - - [09/Nov/2021:12:01:34 -0300] "GET /rasz/resources/images/save.png HTTP/1.1" 200 268
0:0:0:0:0:0:0:1 - - [09/Nov/2021:12:01:34 -0300] "GET /rasz/resources/images/seta_esquerda16x16.png HTTP/1.1" 200 565
0:0:0:0:0:0:0:1 - - [09/Nov/2021:12:01:34 -0300] "GET /rasz/resources/styles/rasz/dist/img/favicon_white.png HTTP/1.1" 200 545
0:0:0:0:0:0:0:1 - - [09/Nov/2021:12:01:35 -0300] "GET /rasz/app/set_change_password?execution=e7s2 HTTP/1.1" 200 11579
0:0:0:0:0:0:0:1 - - [09/Nov/2021:12:01:35 -0300] "GET /rasz/resources/styles/rasz/bootstrap/css/bootstrap.min.css HTTP/1.1" 200 117295
0:0:0:0:0:0:0:1 - - [09/Nov/2021:12:01:35 -0300] "GET /rasz/resources/styles/rasz/dist/css/AdminLTE.css HTTP/1.1" 200 100217
0:0:0:0:0:0:0:1 - - [09/Nov/2021:12:01:35 -0300] "GET /rasz/resources/styles/rasz/dist/css/skins/skin-rasz.css HTTP/1.1" 200 10330
0:0:0:0:0:0:0:1 - - [09/Nov/2021:12:01:35 -0300] "GET /rasz/resources/styles/estilo.css HTTP/1.1" 200 10883
0:0:0:0:0:0:0:1 - - [09/Nov/2021:12:01:35 -0300] "GET /rasz/app/javax.faces.resource/jquery/jquery.js?ln=primefaces&v=5.3 HTTP/1.1" 200 107783
0:0:0:0:0:0:0:1 - - [09/Nov/2021:12:01:35 -0300] "GET /rasz/app/javax.faces.resource/calendario_pt_BR.js?ln=js HTTP/1.1" 200 925
0:0:0:0:0:0:0:1 - - [09/Nov/2021:12:01:35 -0300] "GET /rasz/app/javax.faces.resource/jquery/jquery-plugins.js?ln=primefaces&v=5.3 HTTP/1.1" 200 243000
0:0:0:0:0:0:0:1 - - [09/Nov/2021:12:01:35 -0300] "GET /rasz/app/javax.faces.resource/primefaces.js?ln=primefaces&v=5.3 HTTP/1.1" 200 350170
0:0:0:0:0:0:0:1 - - [09/Nov/2021:12:01:35 -0300] "GET /rasz/app/javax.faces.resource/theme.css?ln=primefaces-bootstrap HTTP/1.1" 200 34898
0:0:0:0:0:0:0:1 - - [09/Nov/2021:12:01:35 -0300] "GET /rasz/app/javax.faces.resource/primefaces.css?ln=primefaces&v=5.3 HTTP/1.1" 200 70743
0:0:0:0:0:0:0:1 - - [09/Nov/2021:12:01:35 -0300] "GET /rasz/resources/styles/rasz/bootstrap/js/bootstrap.min.js HTTP/1.1" 200 35951
0:0:0:0:0:0:0:1 - - [09/Nov/2021:12:01:35 -0300] "GET /rasz/resources/styles/rasz/dist/js/app.js HTTP/1.1" 200 20841
0:0:0:0:0:0:0:1 - - [09/Nov/2021:12:01:35 -0300] "GET /rasz/resources/styles/rasz/dist/img/favicon.png HTTP/1.1" 200 2987
0:0:0:0:0:0:0:1 - - [09/Nov/2021:12:01:35 -0300] "GET /rasz/resources/styles/rasz/dist/img/hg-logo.png HTTP/1.1" 200 10150
0:0:0:0:0:0:0:1 - - [09/Nov/2021:12:01:35 -0300] "GET /rasz/resources/styles/rasz/dist/img/logout.png HTTP/1.1" 200 2100
0:0:0:0:0:0:0:1 - - [09/Nov/2021:12:01:35 -0300] "GET /rasz/resources/styles/rasz/dist/img/user.png HTTP/1.1" 200 13950
0:0:0:0:0:0:0:1 - - [09/Nov/2021:12:01:35 -0300] "GET /rasz/resources/styles/rasz/dist/img/user_white.png HTTP/1.1" 200 5751
0:0:0:0:0:0:0:1 - - [09/Nov/2021:12:01:35 -0300] "GET /rasz/app/javax.faces.resource/spacer/dot_clear.gif?ln=primefaces&v=5.3 HTTP/1.1" 200 42
0:0:0:0:0:0:0:1 - - [09/Nov/2021:12:01:35 -0300] "GET /rasz/resources/images/save.png HTTP/1.1" 200 268
0:0:0:0:0:0:0:1 - - [09/Nov/2021:12:01:35 -0300] "GET /rasz/resources/images/seta_esquerda16x16.png HTTP/1.1" 200 565
0:0:0:0:0:0:0:1 - - [09/Nov/2021:12:01:35 -0300] "GET /rasz/resources/styles/rasz/dist/img/favicon_white.png HTTP/1.1" 200 545
0:0:0:0:0:0:0:1 - - [09/Nov/2021:12:02:05 -0300] "GET /rasz/app/set_change_password?execution=e7s2 HTTP/1.1" 200 11503
0:0:0:0:0:0:0:1 - - [09/Nov/2021:12:02:05 -0300] "GET /rasz/resources/styles/rasz/bootstrap/css/bootstrap.min.css HTTP/1.1" 200 117295
0:0:0:0:0:0:0:1 - - [09/Nov/2021:12:02:05 -0300] "GET /rasz/resources/styles/rasz/dist/css/AdminLTE.css HTTP/1.1" 200 100217
0:0:0:0:0:0:0:1 - - [09/Nov/2021:12:02:05 -0300] "GET /rasz/resources/styles/rasz/dist/css/skins/skin-rasz.css HTTP/1.1" 200 10330
0:0:0:0:0:0:0:1 - - [09/Nov/2021:12:02:05 -0300] "GET /rasz/app/javax.faces.resource/jquery/jquery.js?ln=primefaces&v=5.3 HTTP/1.1" 200 107783
0:0:0:0:0:0:0:1 - - [09/Nov/2021:12:02:05 -0300] "GET /rasz/resources/styles/estilo.css HTTP/1.1" 200 10883
0:0:0:0:0:0:0:1 - - [09/Nov/2021:12:02:05 -0300] "GET /rasz/app/javax.faces.resource/jquery/jquery-plugins.js?ln=primefaces&v=5.3 HTTP/1.1" 200 243000
0:0:0:0:0:0:0:1 - - [09/Nov/2021:12:02:05 -0300] "GET /rasz/app/javax.faces.resource/theme.css?ln=primefaces-bootstrap HTTP/1.1" 200 34898
0:0:0:0:0:0:0:1 - - [09/Nov/2021:12:02:05 -0300] "GET /rasz/app/javax.faces.resource/primefaces.css?ln=primefaces&v=5.3 HTTP/1.1" 200 70743
0:0:0:0:0:0:0:1 - - [09/Nov/2021:12:02:05 -0300] "GET /rasz/app/javax.faces.resource/calendario_pt_BR.js?ln=js HTTP/1.1" 200 925
0:0:0:0:0:0:0:1 - - [09/Nov/2021:12:02:05 -0300] "GET /rasz/app/javax.faces.resource/primefaces.js?ln=primefaces&v=5.3 HTTP/1.1" 200 350170
0:0:0:0:0:0:0:1 - - [09/Nov/2021:12:02:05 -0300] "GET /rasz/resources/styles/rasz/bootstrap/js/bootstrap.min.js HTTP/1.1" 200 35951
0:0:0:0:0:0:0:1 - - [09/Nov/2021:12:02:05 -0300] "GET /rasz/resources/styles/rasz/dist/js/app.js HTTP/1.1" 200 20841
0:0:0:0:0:0:0:1 - - [09/Nov/2021:12:02:05 -0300] "GET /rasz/resources/styles/rasz/dist/img/favicon.png HTTP/1.1" 200 2987
0:0:0:0:0:0:0:1 - - [09/Nov/2021:12:02:05 -0300] "GET /rasz/resources/styles/rasz/dist/img/hg-logo.png HTTP/1.1" 200 10150
0:0:0:0:0:0:0:1 - - [09/Nov/2021:12:02:05 -0300] "GET /rasz/resources/styles/rasz/dist/img/logout.png HTTP/1.1" 200 2100
0:0:0:0:0:0:0:1 - - [09/Nov/2021:12:02:05 -0300] "GET /rasz/resources/styles/rasz/dist/img/user.png HTTP/1.1" 200 13950
0:0:0:0:0:0:0:1 - - [09/Nov/2021:12:02:05 -0300] "GET /rasz/resources/styles/rasz/dist/img/user_white.png HTTP/1.1" 200 5751
0:0:0:0:0:0:0:1 - - [09/Nov/2021:12:02:05 -0300] "GET /rasz/app/javax.faces.resource/spacer/dot_clear.gif?ln=primefaces&v=5.3 HTTP/1.1" 200 42
0:0:0:0:0:0:0:1 - - [09/Nov/2021:12:02:05 -0300] "GET /rasz/resources/images/seta_esquerda16x16.png HTTP/1.1" 200 565
0:0:0:0:0:0:0:1 - - [09/Nov/2021:12:02:05 -0300] "GET /rasz/resources/images/save.png HTTP/1.1" 200 268
0:0:0:0:0:0:0:1 - - [09/Nov/2021:12:02:05 -0300] "GET /rasz/resources/styles/rasz/dist/img/favicon_white.png HTTP/1.1" 200 545
127.0.0.1 - - [09/Nov/2021:14:47:57 -0300] "GET / HTTP/1.1" 404 994
0:0:0:0:0:0:0:1 - - [09/Nov/2021:14:48:46 -0300] "GET /rasz/app/set_change_password?execution=e7s2 HTTP/1.1" 200 11466
0:0:0:0:0:0:0:1 - - [09/Nov/2021:14:48:46 -0300] "GET /rasz/resources/styles/rasz/bootstrap/css/bootstrap.min.css HTTP/1.1" 200 117295
0:0:0:0:0:0:0:1 - - [09/Nov/2021:14:48:46 -0300] "GET /rasz/resources/styles/rasz/dist/css/AdminLTE.css HTTP/1.1" 200 100217
0:0:0:0:0:0:0:1 - - [09/Nov/2021:14:48:46 -0300] "GET /rasz/resources/styles/estilo.css HTTP/1.1" 200 10883
0:0:0:0:0:0:0:1 - - [09/Nov/2021:14:48:46 -0300] "GET /rasz/resources/styles/rasz/dist/css/skins/skin-rasz.css HTTP/1.1" 200 10330
0:0:0:0:0:0:0:1 - - [09/Nov/2021:14:48:46 -0300] "GET /rasz/app/javax.faces.resource/jquery/jquery.js?ln=primefaces&v=5.3 HTTP/1.1" 200 107783
0:0:0:0:0:0:0:1 - - [09/Nov/2021:14:48:46 -0300] "GET /rasz/app/javax.faces.resource/theme.css?ln=primefaces-bootstrap HTTP/1.1" 200 34898
0:0:0:0:0:0:0:1 - - [09/Nov/2021:14:48:46 -0300] "GET /rasz/app/javax.faces.resource/calendario_pt_BR.js?ln=js HTTP/1.1" 200 925
0:0:0:0:0:0:0:1 - - [09/Nov/2021:14:48:46 -0300] "GET /rasz/app/javax.faces.resource/jquery/jquery-plugins.js?ln=primefaces&v=5.3 HTTP/1.1" 200 243000
0:0:0:0:0:0:0:1 - - [09/Nov/2021:14:48:46 -0300] "GET /rasz/app/javax.faces.resource/primefaces.js?ln=primefaces&v=5.3 HTTP/1.1" 200 350170
0:0:0:0:0:0:0:1 - - [09/Nov/2021:14:48:46 -0300] "GET /rasz/app/javax.faces.resource/primefaces.css?ln=primefaces&v=5.3 HTTP/1.1" 200 70743
0:0:0:0:0:0:0:1 - - [09/Nov/2021:14:48:46 -0300] "GET /rasz/resources/styles/rasz/bootstrap/js/bootstrap.min.js HTTP/1.1" 200 35951
0:0:0:0:0:0:0:1 - - [09/Nov/2021:14:48:46 -0300] "GET /rasz/resources/styles/rasz/dist/js/app.js HTTP/1.1" 200 20841
0:0:0:0:0:0:0:1 - - [09/Nov/2021:14:48:46 -0300] "GET /rasz/resources/styles/rasz/dist/img/favicon.png HTTP/1.1" 200 2987
0:0:0:0:0:0:0:1 - - [09/Nov/2021:14:48:46 -0300] "GET /rasz/resources/styles/rasz/dist/img/hg-logo.png HTTP/1.1" 200 10150
0:0:0:0:0:0:0:1 - - [09/Nov/2021:14:48:46 -0300] "GET /rasz/resources/styles/rasz/dist/img/logout.png HTTP/1.1" 200 2100
0:0:0:0:0:0:0:1 - - [09/Nov/2021:14:48:46 -0300] "GET /rasz/resources/styles/rasz/dist/img/user_white.png HTTP/1.1" 200 5751
0:0:0:0:0:0:0:1 - - [09/Nov/2021:14:48:46 -0300] "GET /rasz/resources/styles/rasz/dist/img/user.png HTTP/1.1" 200 13950
0:0:0:0:0:0:0:1 - - [09/Nov/2021:14:48:46 -0300] "GET /rasz/app/javax.faces.resource/spacer/dot_clear.gif?ln=primefaces&v=5.3 HTTP/1.1" 200 42
0:0:0:0:0:0:0:1 - - [09/Nov/2021:14:48:46 -0300] "GET /rasz/resources/images/save.png HTTP/1.1" 200 268
0:0:0:0:0:0:0:1 - - [09/Nov/2021:14:48:46 -0300] "GET /rasz/resources/images/seta_esquerda16x16.png HTTP/1.1" 200 565
0:0:0:0:0:0:0:1 - - [09/Nov/2021:14:48:46 -0300] "GET /rasz/resources/styles/rasz/dist/img/favicon_white.png HTTP/1.1" 200 545
0:0:0:0:0:0:0:1 - - [09/Nov/2021:14:48:50 -0300] "GET /rasz/app/set_change_password HTTP/1.1" 302 -
0:0:0:0:0:0:0:1 - - [09/Nov/2021:14:48:50 -0300] "GET /rasz/app/set_change_password?execution=e8s1 HTTP/1.1" 200 10564
0:0:0:0:0:0:0:1 - - [09/Nov/2021:14:48:53 -0300] "POST /rasz/app/set_change_password?execution=e8s1 HTTP/1.1" 200 185
0:0:0:0:0:0:0:1 - - [09/Nov/2021:14:48:54 -0300] "POST /rasz/app/set_change_password?execution=e8s1 HTTP/1.1" 200 170
0:0:0:0:0:0:0:1 - - [09/Nov/2021:14:48:54 -0300] "GET /rasz/app/set_change_password?execution=e8s2 HTTP/1.1" 200 11466
0:0:0:0:0:0:0:1 - - [09/Nov/2021:14:48:56 -0300] "POST /rasz/app/set_change_password?execution=e8s2 HTTP/1.1" 200 261
0:0:0:0:0:0:0:1 - - [09/Nov/2021:14:49:20 -0300] "GET /rasz/app/set_change_password?execution=e8s2 HTTP/1.1" 200 11466
0:0:0:0:0:0:0:1 - - [09/Nov/2021:14:49:20 -0300] "GET /rasz/resources/styles/rasz/dist/css/skins/skin-rasz.css HTTP/1.1" 200 10330
0:0:0:0:0:0:0:1 - - [09/Nov/2021:14:49:20 -0300] "GET /rasz/resources/styles/rasz/bootstrap/css/bootstrap.min.css HTTP/1.1" 200 117295
0:0:0:0:0:0:0:1 - - [09/Nov/2021:14:49:20 -0300] "GET /rasz/resources/styles/rasz/dist/css/AdminLTE.css HTTP/1.1" 200 100217
0:0:0:0:0:0:0:1 - - [09/Nov/2021:14:49:20 -0300] "GET /rasz/resources/styles/estilo.css HTTP/1.1" 200 10883
0:0:0:0:0:0:0:1 - - [09/Nov/2021:14:49:20 -0300] "GET /rasz/app/javax.faces.resource/jquery/jquery.js?ln=primefaces&v=5.3 HTTP/1.1" 200 107783
0:0:0:0:0:0:0:1 - - [09/Nov/2021:14:49:20 -0300] "GET /rasz/app/javax.faces.resource/jquery/jquery-plugins.js?ln=primefaces&v=5.3 HTTP/1.1" 200 243000
0:0:0:0:0:0:0:1 - - [09/Nov/2021:14:49:20 -0300] "GET /rasz/app/javax.faces.resource/theme.css?ln=primefaces-bootstrap HTTP/1.1" 200 34898
0:0:0:0:0:0:0:1 - - [09/Nov/2021:14:49:20 -0300] "GET /rasz/app/javax.faces.resource/calendario_pt_BR.js?ln=js HTTP/1.1" 200 925
0:0:0:0:0:0:0:1 - - [09/Nov/2021:14:49:20 -0300] "GET /rasz/app/javax.faces.resource/primefaces.js?ln=primefaces&v=5.3 HTTP/1.1" 200 350170
0:0:0:0:0:0:0:1 - - [09/Nov/2021:14:49:20 -0300] "GET /rasz/app/javax.faces.resource/primefaces.css?ln=primefaces&v=5.3 HTTP/1.1" 200 70743
0:0:0:0:0:0:0:1 - - [09/Nov/2021:14:49:21 -0300] "GET /rasz/resources/styles/rasz/bootstrap/js/bootstrap.min.js HTTP/1.1" 200 35951
0:0:0:0:0:0:0:1 - - [09/Nov/2021:14:49:21 -0300] "GET /rasz/resources/styles/rasz/dist/js/app.js HTTP/1.1" 200 20841
0:0:0:0:0:0:0:1 - - [09/Nov/2021:14:49:21 -0300] "GET /rasz/resources/styles/rasz/dist/img/favicon.png HTTP/1.1" 200 2987
0:0:0:0:0:0:0:1 - - [09/Nov/2021:14:49:21 -0300] "GET /rasz/resources/styles/rasz/dist/img/hg-logo.png HTTP/1.1" 200 10150
0:0:0:0:0:0:0:1 - - [09/Nov/2021:14:49:21 -0300] "GET /rasz/resources/styles/rasz/dist/img/logout.png HTTP/1.1" 200 2100
0:0:0:0:0:0:0:1 - - [09/Nov/2021:14:49:21 -0300] "GET /rasz/resources/styles/rasz/dist/img/user.png HTTP/1.1" 200 13950
0:0:0:0:0:0:0:1 - - [09/Nov/2021:14:49:21 -0300] "GET /rasz/resources/styles/rasz/dist/img/user_white.png HTTP/1.1" 200 5751
0:0:0:0:0:0:0:1 - - [09/Nov/2021:14:49:21 -0300] "GET /rasz/app/javax.faces.resource/spacer/dot_clear.gif?ln=primefaces&v=5.3 HTTP/1.1" 200 42
0:0:0:0:0:0:0:1 - - [09/Nov/2021:14:49:21 -0300] "GET /rasz/resources/images/seta_esquerda16x16.png HTTP/1.1" 200 565
0:0:0:0:0:0:0:1 - - [09/Nov/2021:14:49:21 -0300] "GET /rasz/resources/images/save.png HTTP/1.1" 200 268
0:0:0:0:0:0:0:1 - - [09/Nov/2021:14:49:21 -0300] "GET /rasz/resources/styles/rasz/dist/img/favicon_white.png HTTP/1.1" 200 545
0:0:0:0:0:0:0:1 - - [09/Nov/2021:14:49:23 -0300] "GET /rasz/app/set_change_password HTTP/1.1" 302 -
0:0:0:0:0:0:0:1 - - [09/Nov/2021:14:49:23 -0300] "GET /rasz/app/set_change_password?execution=e9s1 HTTP/1.1" 200 10444
0:0:0:0:0:0:0:1 - - [09/Nov/2021:14:49:28 -0300] "POST /rasz/app/set_change_password?execution=e9s1 HTTP/1.1" 200 185
0:0:0:0:0:0:0:1 - - [09/Nov/2021:14:50:00 -0300] "GET /rasz/app/set_change_password?execution=e9s1 HTTP/1.1" 200 10444
0:0:0:0:0:0:0:1 - - [09/Nov/2021:14:50:00 -0300] "GET /rasz/resources/styles/rasz/bootstrap/css/bootstrap.min.css HTTP/1.1" 200 117295
0:0:0:0:0:0:0:1 - - [09/Nov/2021:14:50:00 -0300] "GET /rasz/app/javax.faces.resource/jquery/jquery.js?ln=primefaces&v=5.3 HTTP/1.1" 200 107783
0:0:0:0:0:0:0:1 - - [09/Nov/2021:14:50:00 -0300] "GET /rasz/app/javax.faces.resource/jquery/jquery-plugins.js?ln=primefaces&v=5.3 HTTP/1.1" 200 243000
0:0:0:0:0:0:0:1 - - [09/Nov/2021:14:50:00 -0300] "GET /rasz/resources/styles/rasz/dist/css/AdminLTE.css HTTP/1.1" 200 100217
0:0:0:0:0:0:0:1 - - [09/Nov/2021:14:50:00 -0300] "GET /rasz/app/javax.faces.resource/primefaces.js?ln=primefaces&v=5.3 HTTP/1.1" 200 350170
0:0:0:0:0:0:0:1 - - [09/Nov/2021:14:50:00 -0300] "GET /rasz/resources/styles/rasz/dist/css/skins/skin-rasz.css HTTP/1.1" 200 10330
0:0:0:0:0:0:0:1 - - [09/Nov/2021:14:50:00 -0300] "GET /rasz/app/javax.faces.resource/theme.css?ln=primefaces-bootstrap HTTP/1.1" 200 34898
0:0:0:0:0:0:0:1 - - [09/Nov/2021:14:50:00 -0300] "GET /rasz/resources/styles/estilo.css HTTP/1.1" 200 10883
0:0:0:0:0:0:0:1 - - [09/Nov/2021:14:50:00 -0300] "GET /rasz/app/javax.faces.resource/calendario_pt_BR.js?ln=js HTTP/1.1" 200 925
0:0:0:0:0:0:0:1 - - [09/Nov/2021:14:50:00 -0300] "GET /rasz/app/javax.faces.resource/primefaces.css?ln=primefaces&v=5.3 HTTP/1.1" 200 70743
0:0:0:0:0:0:0:1 - - [09/Nov/2021:14:50:00 -0300] "GET /rasz/resources/styles/rasz/bootstrap/js/bootstrap.min.js HTTP/1.1" 200 35951
0:0:0:0:0:0:0:1 - - [09/Nov/2021:14:50:00 -0300] "GET /rasz/resources/styles/rasz/dist/js/app.js HTTP/1.1" 200 20841
0:0:0:0:0:0:0:1 - - [09/Nov/2021:14:50:00 -0300] "GET /rasz/resources/styles/rasz/dist/img/favicon.png HTTP/1.1" 200 2987
0:0:0:0:0:0:0:1 - - [09/Nov/2021:14:50:00 -0300] "GET /rasz/resources/styles/rasz/dist/img/hg-logo.png HTTP/1.1" 200 10150
0:0:0:0:0:0:0:1 - - [09/Nov/2021:14:50:00 -0300] "GET /rasz/resources/styles/rasz/dist/img/logout.png HTTP/1.1" 200 2100
0:0:0:0:0:0:0:1 - - [09/Nov/2021:14:50:00 -0300] "GET /rasz/resources/styles/rasz/dist/img/user.png HTTP/1.1" 200 13950
0:0:0:0:0:0:0:1 - - [09/Nov/2021:14:50:00 -0300] "GET /rasz/resources/styles/rasz/dist/img/user_white.png HTTP/1.1" 200 5751
0:0:0:0:0:0:0:1 - - [09/Nov/2021:14:50:00 -0300] "GET /rasz/app/javax.faces.resource/spacer/dot_clear.gif?ln=primefaces&v=5.3 HTTP/1.1" 200 42
0:0:0:0:0:0:0:1 - - [09/Nov/2021:14:50:01 -0300] "GET /rasz/resources/images/iconehome.png HTTP/1.1" 200 459
0:0:0:0:0:0:0:1 - - [09/Nov/2021:14:50:01 -0300] "GET /rasz/resources/images/adicionar.png HTTP/1.1" 200 314
0:0:0:0:0:0:0:1 - - [09/Nov/2021:14:50:01 -0300] "GET /rasz/resources/styles/rasz/dist/img/favicon_white.png HTTP/1.1" 200 545
0:0:0:0:0:0:0:1 - - [09/Nov/2021:14:50:03 -0300] "POST /rasz/app/set_change_password?execution=e9s1 HTTP/1.1" 200 261
0:0:0:0:0:0:0:1 - - [09/Nov/2021:14:50:04 -0300] "POST /rasz/app/set_change_password?execution=e9s1 HTTP/1.1" 200 261
0:0:0:0:0:0:0:1 - - [09/Nov/2021:14:50:05 -0300] "POST /rasz/app/set_change_password?execution=e9s1 HTTP/1.1" 200 261
0:0:0:0:0:0:0:1 - - [09/Nov/2021:14:50:11 -0300] "POST /rasz/app/set_change_password?execution=e9s1 HTTP/1.1" 200 185
0:0:0:0:0:0:0:1 - - [09/Nov/2021:14:50:11 -0300] "POST /rasz/app/set_change_password?execution=e9s1 HTTP/1.1" 200 170
0:0:0:0:0:0:0:1 - - [09/Nov/2021:14:50:11 -0300] "GET /rasz/app/set_change_password?execution=e9s2 HTTP/1.1" 200 11466
0:0:0:0:0:0:0:1 - - [09/Nov/2021:14:50:12 -0300] "POST /rasz/app/set_change_password?execution=e9s2 HTTP/1.1" 500 11698
0:0:0:0:0:0:0:1 - - [09/Nov/2021:14:50:14 -0300] "POST /rasz/app/set_change_password?execution=e9s2 HTTP/1.1" 200 185
0:0:0:0:0:0:0:1 - - [09/Nov/2021:14:53:05 -0300] "POST /rasz/app/set_change_password?execution=e9s2 HTTP/1.1" 200 261
0:0:0:0:0:0:0:1 - - [09/Nov/2021:14:53:14 -0300] "POST /rasz/app/set_change_password?execution=e9s2 HTTP/1.1" 200 261
0:0:0:0:0:0:0:1 - - [09/Nov/2021:14:53:20 -0300] "POST /rasz/app/set_change_password?execution=e9s2 HTTP/1.1" 200 185
0:0:0:0:0:0:0:1 - - [09/Nov/2021:14:53:26 -0300] "POST /rasz/app/set_change_password?execution=e9s2 HTTP/1.1" 200 185
0:0:0:0:0:0:0:1 - - [09/Nov/2021:14:53:26 -0300] "POST /rasz/app/set_change_password?execution=e9s2 HTTP/1.1" 500 11698
0:0:0:0:0:0:0:1 - - [09/Nov/2021:14:54:07 -0300] "GET /rasz/app/set_change_password HTTP/1.1" 302 -
0:0:0:0:0:0:0:1 - - [09/Nov/2021:14:54:07 -0300] "GET /rasz/app/set_change_password?execution=e10s1 HTTP/1.1" 200 10446
0:0:0:0:0:0:0:1 - - [09/Nov/2021:14:54:25 -0300] "POST /rasz/app/set_change_password?execution=e10s1 HTTP/1.1" 200 186
0:0:0:0:0:0:0:1 - - [09/Nov/2021:14:54:25 -0300] "POST /rasz/app/set_change_password?execution=e10s1 HTTP/1.1" 200 171
0:0:0:0:0:0:0:1 - - [09/Nov/2021:14:54:25 -0300] "GET /rasz/app/set_change_password?execution=e10s2 HTTP/1.1" 200 11468
0:0:0:0:0:0:0:1 - - [09/Nov/2021:14:54:39 -0300] "POST /rasz/app/set_change_password?execution=e10s2 HTTP/1.1" 500 11698
0:0:0:0:0:0:0:1 - - [09/Nov/2021:14:54:42 -0300] "POST /rasz/app/set_change_password?execution=e10s2 HTTP/1.1" 200 186
0:0:0:0:0:0:0:1 - - [09/Nov/2021:14:55:13 -0300] "POST /rasz/app/set_change_password?execution=e10s2 HTTP/1.1" 200 262
0:0:0:0:0:0:0:1 - - [09/Nov/2021:14:55:14 -0300] "POST /rasz/app/set_change_password?execution=e10s2 HTTP/1.1" 200 262
0:0:0:0:0:0:0:1 - - [09/Nov/2021:14:56:12 -0300] "GET /rasz/app/set_change_password?execution=e10s2 HTTP/1.1" 200 11465
0:0:0:0:0:0:0:1 - - [09/Nov/2021:14:56:12 -0300] "GET /rasz/resources/styles/rasz/dist/css/AdminLTE.css HTTP/1.1" 200 100217
0:0:0:0:0:0:0:1 - - [09/Nov/2021:14:56:12 -0300] "GET /rasz/resources/styles/estilo.css HTTP/1.1" 200 10883
0:0:0:0:0:0:0:1 - - [09/Nov/2021:14:56:12 -0300] "GET /rasz/resources/styles/rasz/dist/css/skins/skin-rasz.css HTTP/1.1" 200 10330
0:0:0:0:0:0:0:1 - - [09/Nov/2021:14:56:12 -0300] "GET /rasz/resources/styles/rasz/bootstrap/css/bootstrap.min.css HTTP/1.1" 200 117295
0:0:0:0:0:0:0:1 - - [09/Nov/2021:14:56:12 -0300] "GET /rasz/app/javax.faces.resource/calendario_pt_BR.js?ln=js HTTP/1.1" 200 925
0:0:0:0:0:0:0:1 - - [09/Nov/2021:14:56:12 -0300] "GET /rasz/app/javax.faces.resource/jquery/jquery.js?ln=primefaces&v=5.3 HTTP/1.1" 200 107783
0:0:0:0:0:0:0:1 - - [09/Nov/2021:14:56:12 -0300] "GET /rasz/app/javax.faces.resource/theme.css?ln=primefaces-bootstrap HTTP/1.1" 200 34898
0:0:0:0:0:0:0:1 - - [09/Nov/2021:14:56:12 -0300] "GET /rasz/app/javax.faces.resource/jquery/jquery-plugins.js?ln=primefaces&v=5.3 HTTP/1.1" 200 243000
0:0:0:0:0:0:0:1 - - [09/Nov/2021:14:56:12 -0300] "GET /rasz/app/javax.faces.resource/primefaces.js?ln=primefaces&v=5.3 HTTP/1.1" 200 350170
0:0:0:0:0:0:0:1 - - [09/Nov/2021:14:56:12 -0300] "GET /rasz/app/javax.faces.resource/primefaces.css?ln=primefaces&v=5.3 HTTP/1.1" 200 70743
0:0:0:0:0:0:0:1 - - [09/Nov/2021:14:56:12 -0300] "GET /rasz/resources/styles/rasz/bootstrap/js/bootstrap.min.js HTTP/1.1" 200 35951
0:0:0:0:0:0:0:1 - - [09/Nov/2021:14:56:12 -0300] "GET /rasz/resources/styles/rasz/dist/js/app.js HTTP/1.1" 200 20841
0:0:0:0:0:0:0:1 - - [09/Nov/2021:14:56:12 -0300] "GET /rasz/resources/styles/rasz/dist/img/favicon.png HTTP/1.1" 200 2987
0:0:0:0:0:0:0:1 - - [09/Nov/2021:14:56:12 -0300] "GET /rasz/resources/styles/rasz/dist/img/hg-logo.png HTTP/1.1" 200 10150
0:0:0:0:0:0:0:1 - - [09/Nov/2021:14:56:12 -0300] "GET /rasz/resources/styles/rasz/dist/img/logout.png HTTP/1.1" 200 2100
0:0:0:0:0:0:0:1 - - [09/Nov/2021:14:56:12 -0300] "GET /rasz/resources/styles/rasz/dist/img/user.png HTTP/1.1" 200 13950
0:0:0:0:0:0:0:1 - - [09/Nov/2021:14:56:12 -0300] "GET /rasz/resources/styles/rasz/dist/img/user_white.png HTTP/1.1" 200 5751
0:0:0:0:0:0:0:1 - - [09/Nov/2021:14:56:12 -0300] "GET /rasz/app/javax.faces.resource/spacer/dot_clear.gif?ln=primefaces&v=5.3 HTTP/1.1" 200 42
0:0:0:0:0:0:0:1 - - [09/Nov/2021:14:56:12 -0300] "GET /rasz/resources/images/iconehome.png HTTP/1.1" 200 459
0:0:0:0:0:0:0:1 - - [09/Nov/2021:14:56:12 -0300] "GET /rasz/resources/images/save.png HTTP/1.1" 200 268
0:0:0:0:0:0:0:1 - - [09/Nov/2021:14:56:12 -0300] "GET /rasz/resources/styles/rasz/dist/img/favicon_white.png HTTP/1.1" 200 545
0:0:0:0:0:0:0:1 - - [09/Nov/2021:14:56:20 -0300] "GET /rasz/app/set_change_password?execution=e10s2 HTTP/1.1" 200 11465
0:0:0:0:0:0:0:1 - - [09/Nov/2021:14:56:20 -0300] "GET /rasz/resources/styles/rasz/bootstrap/css/bootstrap.min.css HTTP/1.1" 200 117295
0:0:0:0:0:0:0:1 - - [09/Nov/2021:14:56:20 -0300] "GET /rasz/app/javax.faces.resource/jquery/jquery.js?ln=primefaces&v=5.3 HTTP/1.1" 200 107783
0:0:0:0:0:0:0:1 - - [09/Nov/2021:14:56:20 -0300] "GET /rasz/app/javax.faces.resource/jquery/jquery-plugins.js?ln=primefaces&v=5.3 HTTP/1.1" 200 243000
0:0:0:0:0:0:0:1 - - [09/Nov/2021:14:56:20 -0300] "GET /rasz/resources/styles/rasz/dist/css/skins/skin-rasz.css HTTP/1.1" 200 10330
0:0:0:0:0:0:0:1 - - [09/Nov/2021:14:56:20 -0300] "GET /rasz/app/javax.faces.resource/primefaces.js?ln=primefaces&v=5.3 HTTP/1.1" 200 350170
0:0:0:0:0:0:0:1 - - [09/Nov/2021:14:56:20 -0300] "GET /rasz/resources/styles/rasz/dist/css/AdminLTE.css HTTP/1.1" 200 100217
0:0:0:0:0:0:0:1 - - [09/Nov/2021:14:56:20 -0300] "GET /rasz/app/javax.faces.resource/theme.css?ln=primefaces-bootstrap HTTP/1.1" 200 34898
0:0:0:0:0:0:0:1 - - [09/Nov/2021:14:56:20 -0300] "GET /rasz/resources/styles/estilo.css HTTP/1.1" 200 10883
0:0:0:0:0:0:0:1 - - [09/Nov/2021:14:56:20 -0300] "GET /rasz/app/javax.faces.resource/calendario_pt_BR.js?ln=js HTTP/1.1" 200 925
0:0:0:0:0:0:0:1 - - [09/Nov/2021:14:56:20 -0300] "GET /rasz/app/javax.faces.resource/primefaces.css?ln=primefaces&v=5.3 HTTP/1.1" 200 70743
0:0:0:0:0:0:0:1 - - [09/Nov/2021:14:56:20 -0300] "GET /rasz/resources/styles/rasz/bootstrap/js/bootstrap.min.js HTTP/1.1" 200 35951
0:0:0:0:0:0:0:1 - - [09/Nov/2021:14:56:20 -0300] "GET /rasz/resources/styles/rasz/dist/js/app.js HTTP/1.1" 200 20841
0:0:0:0:0:0:0:1 - - [09/Nov/2021:14:56:20 -0300] "GET /rasz/resources/styles/rasz/dist/img/favicon.png HTTP/1.1" 200 2987
0:0:0:0:0:0:0:1 - - [09/Nov/2021:14:56:20 -0300] "GET /rasz/resources/styles/rasz/dist/img/hg-logo.png HTTP/1.1" 200 10150
0:0:0:0:0:0:0:1 - - [09/Nov/2021:14:56:20 -0300] "GET /rasz/resources/styles/rasz/dist/img/logout.png HTTP/1.1" 200 2100
0:0:0:0:0:0:0:1 - - [09/Nov/2021:14:56:20 -0300] "GET /rasz/resources/styles/rasz/dist/img/user.png HTTP/1.1" 200 13950
0:0:0:0:0:0:0:1 - - [09/Nov/2021:14:56:20 -0300] "GET /rasz/resources/styles/rasz/dist/img/user_white.png HTTP/1.1" 200 5751
0:0:0:0:0:0:0:1 - - [09/Nov/2021:14:56:20 -0300] "GET /rasz/app/javax.faces.resource/spacer/dot_clear.gif?ln=primefaces&v=5.3 HTTP/1.1" 200 42
0:0:0:0:0:0:0:1 - - [09/Nov/2021:14:56:20 -0300] "GET /rasz/resources/images/iconehome.png HTTP/1.1" 200 459
0:0:0:0:0:0:0:1 - - [09/Nov/2021:14:56:20 -0300] "GET /rasz/resources/images/save.png HTTP/1.1" 200 268
0:0:0:0:0:0:0:1 - - [09/Nov/2021:14:56:20 -0300] "GET /rasz/resources/styles/rasz/dist/img/favicon_white.png HTTP/1.1" 200 545
0:0:0:0:0:0:0:1 - - [09/Nov/2021:14:56:22 -0300] "POST /rasz/app/set_change_password?execution=e10s2 HTTP/1.1" 200 262
0:0:0:0:0:0:0:1 - - [09/Nov/2021:14:56:23 -0300] "POST /rasz/app/set_change_password?execution=e10s2 HTTP/1.1" 200 262
0:0:0:0:0:0:0:1 - - [09/Nov/2021:14:56:23 -0300] "POST /rasz/app/set_change_password?execution=e10s2 HTTP/1.1" 200 262
0:0:0:0:0:0:0:1 - - [09/Nov/2021:14:56:24 -0300] "POST /rasz/app/set_change_password?execution=e10s2 HTTP/1.1" 200 262
0:0:0:0:0:0:0:1 - - [09/Nov/2021:14:56:25 -0300] "POST /rasz/app/set_change_password?execution=e10s2 HTTP/1.1" 200 262
0:0:0:0:0:0:0:1 - - [09/Nov/2021:14:56:26 -0300] "POST /rasz/app/set_change_password?execution=e10s2 HTTP/1.1" 200 262
0:0:0:0:0:0:0:1 - - [09/Nov/2021:14:56:26 -0300] "POST /rasz/app/set_change_password?execution=e10s2 HTTP/1.1" 200 262
0:0:0:0:0:0:0:1 - - [09/Nov/2021:14:56:27 -0300] "POST /rasz/app/set_change_password?execution=e10s2 HTTP/1.1" 200 262
0:0:0:0:0:0:0:1 - - [09/Nov/2021:14:56:28 -0300] "POST /rasz/app/set_change_password?execution=e10s2 HTTP/1.1" 200 262
0:0:0:0:0:0:0:1 - - [09/Nov/2021:14:56:28 -0300] "POST /rasz/app/set_change_password?execution=e10s2 HTTP/1.1" 200 262
0:0:0:0:0:0:0:1 - - [09/Nov/2021:14:56:33 -0300] "GET /rasz/app/set_change_password?execution=e10s2 HTTP/1.1" 200 11465
0:0:0:0:0:0:0:1 - - [09/Nov/2021:14:56:33 -0300] "GET /rasz/app/javax.faces.resource/jquery/jquery.js?ln=primefaces&v=5.3 HTTP/1.1" 200 107783
0:0:0:0:0:0:0:1 - - [09/Nov/2021:14:56:33 -0300] "GET /rasz/app/javax.faces.resource/jquery/jquery-plugins.js?ln=primefaces&v=5.3 HTTP/1.1" 200 243000
0:0:0:0:0:0:0:1 - - [09/Nov/2021:14:56:33 -0300] "GET /rasz/app/javax.faces.resource/primefaces.js?ln=primefaces&v=5.3 HTTP/1.1" 200 350170
0:0:0:0:0:0:0:1 - - [09/Nov/2021:14:56:33 -0300] "GET /rasz/app/javax.faces.resource/theme.css?ln=primefaces-bootstrap HTTP/1.1" 200 34898
0:0:0:0:0:0:0:1 - - [09/Nov/2021:14:56:33 -0300] "GET /rasz/resources/styles/rasz/bootstrap/css/bootstrap.min.css HTTP/1.1" 200 117295
0:0:0:0:0:0:0:1 - - [09/Nov/2021:14:56:33 -0300] "GET /rasz/resources/styles/rasz/dist/css/AdminLTE.css HTTP/1.1" 200 100217
0:0:0:0:0:0:0:1 - - [09/Nov/2021:14:56:33 -0300] "GET /rasz/resources/styles/rasz/dist/css/skins/skin-rasz.css HTTP/1.1" 200 10330
0:0:0:0:0:0:0:1 - - [09/Nov/2021:14:56:33 -0300] "GET /rasz/resources/styles/estilo.css HTTP/1.1" 200 10883
0:0:0:0:0:0:0:1 - - [09/Nov/2021:14:56:33 -0300] "GET /rasz/app/javax.faces.resource/calendario_pt_BR.js?ln=js HTTP/1.1" 200 925
0:0:0:0:0:0:0:1 - - [09/Nov/2021:14:56:33 -0300] "GET /rasz/app/javax.faces.resource/primefaces.css?ln=primefaces&v=5.3 HTTP/1.1" 200 70743
0:0:0:0:0:0:0:1 - - [09/Nov/2021:14:56:33 -0300] "GET /rasz/resources/styles/rasz/bootstrap/js/bootstrap.min.js HTTP/1.1" 200 35951
0:0:0:0:0:0:0:1 - - [09/Nov/2021:14:56:33 -0300] "GET /rasz/resources/styles/rasz/dist/js/app.js HTTP/1.1" 200 20841
0:0:0:0:0:0:0:1 - - [09/Nov/2021:14:56:33 -0300] "GET /rasz/resources/styles/rasz/dist/img/favicon.png HTTP/1.1" 200 2987
0:0:0:0:0:0:0:1 - - [09/Nov/2021:14:56:33 -0300] "GET /rasz/resources/styles/rasz/dist/img/hg-logo.png HTTP/1.1" 200 10150
0:0:0:0:0:0:0:1 - - [09/Nov/2021:14:56:33 -0300] "GET /rasz/resources/styles/rasz/dist/img/logout.png HTTP/1.1" 200 2100
0:0:0:0:0:0:0:1 - - [09/Nov/2021:14:56:33 -0300] "GET /rasz/resources/styles/rasz/dist/img/user.png HTTP/1.1" 200 13950
0:0:0:0:0:0:0:1 - - [09/Nov/2021:14:56:33 -0300] "GET /rasz/resources/styles/rasz/dist/img/user_white.png HTTP/1.1" 200 5751
0:0:0:0:0:0:0:1 - - [09/Nov/2021:14:56:33 -0300] "GET /rasz/app/javax.faces.resource/spacer/dot_clear.gif?ln=primefaces&v=5.3 HTTP/1.1" 200 42
0:0:0:0:0:0:0:1 - - [09/Nov/2021:14:56:33 -0300] "GET /rasz/resources/images/save.png HTTP/1.1" 200 268
0:0:0:0:0:0:0:1 - - [09/Nov/2021:14:56:33 -0300] "GET /rasz/resources/images/iconehome.png HTTP/1.1" 200 459
0:0:0:0:0:0:0:1 - - [09/Nov/2021:14:56:34 -0300] "GET /rasz/resources/styles/rasz/dist/img/favicon_white.png HTTP/1.1" 200 545
0:0:0:0:0:0:0:1 - - [09/Nov/2021:14:56:36 -0300] "POST /rasz/app/set_change_password?execution=e10s2 HTTP/1.1" 500 11682
0:0:0:0:0:0:0:1 - - [09/Nov/2021:14:57:23 -0300] "GET /rasz/app/set_change_password?execution=e10s2 HTTP/1.1" 500 30264
0:0:0:0:0:0:0:1 - - [09/Nov/2021:14:57:23 -0300] "GET /favicon.ico HTTP/1.1" 404 1016
127.0.0.1 - - [09/Nov/2021:14:57:41 -0300] "GET / HTTP/1.1" 404 994
0:0:0:0:0:0:0:1 - - [09/Nov/2021:14:58:03 -0300] "GET /rasz/app/set_change_password?execution=e10s2 HTTP/1.1" 302 -
0:0:0:0:0:0:0:1 - - [09/Nov/2021:14:58:03 -0300] "GET /rasz/app/login HTTP/1.1" 200 4970
0:0:0:0:0:0:0:1 - - [09/Nov/2021:14:58:03 -0300] "GET /rasz/resources/styles/rasz/dist/css/skins/skin-rasz.css HTTP/1.1" 200 10330
0:0:0:0:0:0:0:1 - - [09/Nov/2021:14:58:03 -0300] "GET /rasz/resources/styles/rasz/dist/css/AdminLTE.css HTTP/1.1" 200 100217
0:0:0:0:0:0:0:1 - - [09/Nov/2021:14:58:03 -0300] "GET /rasz/resources/styles/rasz/bootstrap/css/bootstrap.min.css HTTP/1.1" 200 117295
0:0:0:0:0:0:0:1 - - [09/Nov/2021:14:58:03 -0300] "GET /rasz/resources/styles/rasz/dist/img/favicon.png HTTP/1.1" 200 2987
0:0:0:0:0:0:0:1 - - [09/Nov/2021:14:58:03 -0300] "GET /rasz/resources/styles/rasz/bootstrap/js/bootstrap.min.js HTTP/1.1" 200 35951
0:0:0:0:0:0:0:1 - - [09/Nov/2021:14:58:03 -0300] "GET /rasz/resources/styles/rasz/dist/img/hg-logo.png HTTP/1.1" 200 10150
0:0:0:0:0:0:0:1 - - [09/Nov/2021:14:58:03 -0300] "GET /rasz/resources/images/login.png HTTP/1.1" 200 3921
0:0:0:0:0:0:0:1 - - [09/Nov/2021:14:58:03 -0300] "GET /rasz/resources/styles/rasz/dist/js/app.min.js HTTP/1.1" 302 -
0:0:0:0:0:0:0:1 - - [09/Nov/2021:14:58:03 -0300] "GET /rasz/app/erro_404?execution=e1s1 HTTP/1.1" 302 -
0:0:0:0:0:0:0:1 - - [09/Nov/2021:14:58:03 -0300] "GET /rasz/app/login HTTP/1.1" 200 4970
0:0:0:0:0:0:0:1 - - [09/Nov/2021:14:58:21 -0300] "POST /rasz/app/j_spring_security_check HTTP/1.1" 302 -
0:0:0:0:0:0:0:1 - - [09/Nov/2021:14:58:21 -0300] "GET /rasz/app/home HTTP/1.1" 302 -
0:0:0:0:0:0:0:1 - - [09/Nov/2021:14:58:21 -0300] "GET /rasz/app/home?execution=e2s1 HTTP/1.1" 200 7676
0:0:0:0:0:0:0:1 - - [09/Nov/2021:14:58:24 -0300] "GET /rasz/app/set_change_password HTTP/1.1" 500 28327
0:0:0:0:0:0:0:1 - - [09/Nov/2021:14:58:24 -0300] "GET /favicon.ico HTTP/1.1" 404 1016
127.0.0.1 - - [09/Nov/2021:14:59:01 -0300] "GET / HTTP/1.1" 404 994
0:0:0:0:0:0:0:1 - - [09/Nov/2021:14:59:04 -0300] "GET /rasz/app/set_change_password HTTP/1.1" 302 -
0:0:0:0:0:0:0:1 - - [09/Nov/2021:14:59:05 -0300] "GET /rasz/app/login HTTP/1.1" 200 4970
0:0:0:0:0:0:0:1 - - [09/Nov/2021:14:59:05 -0300] "GET /rasz/resources/styles/rasz/bootstrap/js/bootstrap.min.js HTTP/1.1" 200 35951
0:0:0:0:0:0:0:1 - - [09/Nov/2021:14:59:05 -0300] "GET /rasz/resources/styles/rasz/dist/css/skins/skin-rasz.css HTTP/1.1" 200 10330
0:0:0:0:0:0:0:1 - - [09/Nov/2021:14:59:05 -0300] "GET /rasz/resources/styles/rasz/dist/img/favicon.png HTTP/1.1" 200 2987
0:0:0:0:0:0:0:1 - - [09/Nov/2021:14:59:05 -0300] "GET /rasz/resources/styles/rasz/dist/css/AdminLTE.css HTTP/1.1" 200 100217
0:0:0:0:0:0:0:1 - - [09/Nov/2021:14:59:05 -0300] "GET /rasz/resources/styles/rasz/bootstrap/css/bootstrap.min.css HTTP/1.1" 200 117295
0:0:0:0:0:0:0:1 - - [09/Nov/2021:14:59:05 -0300] "GET /rasz/resources/images/login.png HTTP/1.1" 200 3921
0:0:0:0:0:0:0:1 - - [09/Nov/2021:14:59:05 -0300] "GET /rasz/resources/styles/rasz/dist/img/hg-logo.png HTTP/1.1" 200 10150
0:0:0:0:0:0:0:1 - - [09/Nov/2021:14:59:05 -0300] "GET /rasz/resources/styles/rasz/dist/js/app.min.js HTTP/1.1" 302 -
0:0:0:0:0:0:0:1 - - [09/Nov/2021:14:59:05 -0300] "GET /rasz/app/erro_404?execution=e1s1 HTTP/1.1" 302 -
0:0:0:0:0:0:0:1 - - [09/Nov/2021:14:59:05 -0300] "GET /rasz/app/login HTTP/1.1" 200 4970
0:0:0:0:0:0:0:1 - - [09/Nov/2021:14:59:07 -0300] "POST /rasz/app/j_spring_security_check HTTP/1.1" 302 -
0:0:0:0:0:0:0:1 - - [09/Nov/2021:14:59:07 -0300] "GET /rasz/app/home HTTP/1.1" 302 -
0:0:0:0:0:0:0:1 - - [09/Nov/2021:14:59:07 -0300] "GET /rasz/app/home?execution=e2s1 HTTP/1.1" 200 7676
0:0:0:0:0:0:0:1 - - [09/Nov/2021:14:59:10 -0300] "GET /rasz/app/set_change_password HTTP/1.1" 302 -
0:0:0:0:0:0:0:1 - - [09/Nov/2021:14:59:11 -0300] "GET /rasz/app/set_change_password?execution=e3s1 HTTP/1.1" 200 10444
0:0:0:0:0:0:0:1 - - [09/Nov/2021:14:59:18 -0300] "POST /rasz/app/set_change_password?execution=e3s1 HTTP/1.1" 200 185
0:0:0:0:0:0:0:1 - - [09/Nov/2021:14:59:18 -0300] "POST /rasz/app/set_change_password?execution=e3s1 HTTP/1.1" 200 170
0:0:0:0:0:0:0:1 - - [09/Nov/2021:14:59:18 -0300] "GET /rasz/app/set_change_password?execution=e3s2 HTTP/1.1" 200 11463
0:0:0:0:0:0:0:1 - - [09/Nov/2021:14:59:54 -0300] "GET /rasz/app/set_change_password?execution=e3s2 HTTP/1.1" 200 11463
0:0:0:0:0:0:0:1 - - [09/Nov/2021:14:59:54 -0300] "GET /rasz/resources/styles/rasz/dist/css/skins/skin-rasz.css HTTP/1.1" 200 10330
0:0:0:0:0:0:0:1 - - [09/Nov/2021:14:59:54 -0300] "GET /rasz/resources/styles/rasz/dist/css/AdminLTE.css HTTP/1.1" 200 100217
0:0:0:0:0:0:0:1 - - [09/Nov/2021:14:59:54 -0300] "GET /rasz/resources/styles/estilo.css HTTP/1.1" 200 10883
0:0:0:0:0:0:0:1 - - [09/Nov/2021:14:59:54 -0300] "GET /rasz/resources/styles/rasz/bootstrap/css/bootstrap.min.css HTTP/1.1" 200 117295
0:0:0:0:0:0:0:1 - - [09/Nov/2021:14:59:54 -0300] "GET /rasz/app/javax.faces.resource/jquery/jquery.js?ln=primefaces&v=5.3 HTTP/1.1" 200 107783
0:0:0:0:0:0:0:1 - - [09/Nov/2021:14:59:54 -0300] "GET /rasz/app/javax.faces.resource/calendario_pt_BR.js?ln=js HTTP/1.1" 200 925
0:0:0:0:0:0:0:1 - - [09/Nov/2021:14:59:54 -0300] "GET /rasz/app/javax.faces.resource/jquery/jquery-plugins.js?ln=primefaces&v=5.3 HTTP/1.1" 200 243000
0:0:0:0:0:0:0:1 - - [09/Nov/2021:14:59:54 -0300] "GET /rasz/app/javax.faces.resource/primefaces.js?ln=primefaces&v=5.3 HTTP/1.1" 200 350170
0:0:0:0:0:0:0:1 - - [09/Nov/2021:14:59:54 -0300] "GET /rasz/app/javax.faces.resource/theme.css?ln=primefaces-bootstrap HTTP/1.1" 200 34898
0:0:0:0:0:0:0:1 - - [09/Nov/2021:14:59:54 -0300] "GET /rasz/app/javax.faces.resource/primefaces.css?ln=primefaces&v=5.3 HTTP/1.1" 200 70743
0:0:0:0:0:0:0:1 - - [09/Nov/2021:14:59:54 -0300] "GET /rasz/resources/styles/rasz/bootstrap/js/bootstrap.min.js HTTP/1.1" 200 35951
0:0:0:0:0:0:0:1 - - [09/Nov/2021:14:59:54 -0300] "GET /rasz/resources/styles/rasz/dist/js/app.js HTTP/1.1" 200 20841
0:0:0:0:0:0:0:1 - - [09/Nov/2021:14:59:54 -0300] "GET /rasz/resources/styles/rasz/dist/img/favicon.png HTTP/1.1" 200 2987
0:0:0:0:0:0:0:1 - - [09/Nov/2021:14:59:54 -0300] "GET /rasz/resources/styles/rasz/dist/img/hg-logo.png HTTP/1.1" 200 10150
0:0:0:0:0:0:0:1 - - [09/Nov/2021:14:59:54 -0300] "GET /rasz/resources/styles/rasz/dist/img/logout.png HTTP/1.1" 200 2100
0:0:0:0:0:0:0:1 - - [09/Nov/2021:14:59:54 -0300] "GET /rasz/resources/styles/rasz/dist/img/user.png HTTP/1.1" 200 13950
0:0:0:0:0:0:0:1 - - [09/Nov/2021:14:59:54 -0300] "GET /rasz/resources/styles/rasz/dist/img/user_white.png HTTP/1.1" 200 5751
0:0:0:0:0:0:0:1 - - [09/Nov/2021:14:59:54 -0300] "GET /rasz/app/javax.faces.resource/spacer/dot_clear.gif?ln=primefaces&v=5.3 HTTP/1.1" 200 42
0:0:0:0:0:0:0:1 - - [09/Nov/2021:14:59:54 -0300] "GET /rasz/resources/images/iconehome.png HTTP/1.1" 200 459
0:0:0:0:0:0:0:1 - - [09/Nov/2021:14:59:54 -0300] "GET /rasz/resources/images/save.png HTTP/1.1" 200 268
0:0:0:0:0:0:0:1 - - [09/Nov/2021:14:59:54 -0300] "GET /rasz/resources/styles/rasz/dist/img/favicon_white.png HTTP/1.1" 200 545
0:0:0:0:0:0:0:1 - - [09/Nov/2021:14:59:59 -0300] "GET /rasz/app/set_change_password?execution=e3s2 HTTP/1.1" 200 11463
0:0:0:0:0:0:0:1 - - [09/Nov/2021:14:59:59 -0300] "GET /rasz/resources/styles/rasz/bootstrap/css/bootstrap.min.css HTTP/1.1" 200 117295
0:0:0:0:0:0:0:1 - - [09/Nov/2021:14:59:59 -0300] "GET /rasz/app/javax.faces.resource/jquery/jquery.js?ln=primefaces&v=5.3 HTTP/1.1" 200 107783
0:0:0:0:0:0:0:1 - - [09/Nov/2021:14:59:59 -0300] "GET /rasz/app/javax.faces.resource/jquery/jquery-plugins.js?ln=primefaces&v=5.3 HTTP/1.1" 200 243000
0:0:0:0:0:0:0:1 - - [09/Nov/2021:14:59:59 -0300] "GET /rasz/resources/styles/rasz/dist/css/AdminLTE.css HTTP/1.1" 200 100217
0:0:0:0:0:0:0:1 - - [09/Nov/2021:14:59:59 -0300] "GET /rasz/app/javax.faces.resource/primefaces.js?ln=primefaces&v=5.3 HTTP/1.1" 200 350170
0:0:0:0:0:0:0:1 - - [09/Nov/2021:14:59:59 -0300] "GET /rasz/resources/styles/rasz/dist/css/skins/skin-rasz.css HTTP/1.1" 200 10330
0:0:0:0:0:0:0:1 - - [09/Nov/2021:14:59:59 -0300] "GET /rasz/app/javax.faces.resource/theme.css?ln=primefaces-bootstrap HTTP/1.1" 200 34898
0:0:0:0:0:0:0:1 - - [09/Nov/2021:14:59:59 -0300] "GET /rasz/resources/styles/estilo.css HTTP/1.1" 200 10883
0:0:0:0:0:0:0:1 - - [09/Nov/2021:14:59:59 -0300] "GET /rasz/app/javax.faces.resource/calendario_pt_BR.js?ln=js HTTP/1.1" 200 925
0:0:0:0:0:0:0:1 - - [09/Nov/2021:14:59:59 -0300] "GET /rasz/app/javax.faces.resource/primefaces.css?ln=primefaces&v=5.3 HTTP/1.1" 200 70743
0:0:0:0:0:0:0:1 - - [09/Nov/2021:14:59:59 -0300] "GET /rasz/resources/styles/rasz/bootstrap/js/bootstrap.min.js HTTP/1.1" 200 35951
0:0:0:0:0:0:0:1 - - [09/Nov/2021:14:59:59 -0300] "GET /rasz/resources/styles/rasz/dist/js/app.js HTTP/1.1" 200 20841
0:0:0:0:0:0:0:1 - - [09/Nov/2021:14:59:59 -0300] "GET /rasz/resources/styles/rasz/dist/img/favicon.png HTTP/1.1" 200 2987
0:0:0:0:0:0:0:1 - - [09/Nov/2021:14:59:59 -0300] "GET /rasz/resources/styles/rasz/dist/img/hg-logo.png HTTP/1.1" 200 10150
0:0:0:0:0:0:0:1 - - [09/Nov/2021:14:59:59 -0300] "GET /rasz/resources/styles/rasz/dist/img/logout.png HTTP/1.1" 200 2100
0:0:0:0:0:0:0:1 - - [09/Nov/2021:14:59:59 -0300] "GET /rasz/resources/styles/rasz/dist/img/user.png HTTP/1.1" 200 13950
0:0:0:0:0:0:0:1 - - [09/Nov/2021:14:59:59 -0300] "GET /rasz/resources/styles/rasz/dist/img/user_white.png HTTP/1.1" 200 5751
0:0:0:0:0:0:0:1 - - [09/Nov/2021:14:59:59 -0300] "GET /rasz/app/javax.faces.resource/spacer/dot_clear.gif?ln=primefaces&v=5.3 HTTP/1.1" 200 42
0:0:0:0:0:0:0:1 - - [09/Nov/2021:14:59:59 -0300] "GET /rasz/resources/images/save.png HTTP/1.1" 200 268
0:0:0:0:0:0:0:1 - - [09/Nov/2021:14:59:59 -0300] "GET /rasz/resources/images/iconehome.png HTTP/1.1" 200 459
0:0:0:0:0:0:0:1 - - [09/Nov/2021:15:00:00 -0300] "GET /rasz/resources/styles/rasz/dist/img/favicon_white.png HTTP/1.1" 200 545
0:0:0:0:0:0:0:1 - - [09/Nov/2021:15:01:12 -0300] "POST /rasz/app/set_change_password?execution=e3s2 HTTP/1.1" 200 261
0:0:0:0:0:0:0:1 - - [09/Nov/2021:15:01:20 -0300] "POST /rasz/app/set_change_password?execution=e3s2 HTTP/1.1" 200 261
0:0:0:0:0:0:0:1 - - [09/Nov/2021:15:02:25 -0300] "POST /rasz/app/set_change_password?execution=e3s2 HTTP/1.1" 200 261
0:0:0:0:0:0:0:1 - - [09/Nov/2021:15:03:01 -0300] "POST /rasz/app/set_change_password?execution=e3s2 HTTP/1.1" 200 261
0:0:0:0:0:0:0:1 - - [09/Nov/2021:15:03:30 -0300] "POST /rasz/app/set_change_password?execution=e3s2 HTTP/1.1" 200 261
0:0:0:0:0:0:0:1 - - [09/Nov/2021:15:03:38 -0300] "POST /rasz/app/set_change_password?execution=e3s2 HTTP/1.1" 200 261
0:0:0:0:0:0:0:1 - - [09/Nov/2021:15:03:42 -0300] "POST /rasz/app/set_change_password?execution=e3s2 HTTP/1.1" 200 261
0:0:0:0:0:0:0:1 - - [09/Nov/2021:15:03:48 -0300] "POST /rasz/app/set_change_password?execution=e3s2 HTTP/1.1" 200 261
127.0.0.1 - - [09/Nov/2021:15:04:34 -0300] "GET / HTTP/1.1" 404 994
0:0:0:0:0:0:0:1 - - [09/Nov/2021:15:05:10 -0300] "POST /rasz/app/set_change_password?execution=e3s2 HTTP/1.1" 302 -
0:0:0:0:0:0:0:1 - - [09/Nov/2021:15:05:11 -0300] "GET /rasz/app/login HTTP/1.1" 200 190
0:0:0:0:0:0:0:1 - - [09/Nov/2021:15:05:44 -0300] "GET /rasz/app/set_change_password?execution=e3s2 HTTP/1.1" 302 -
0:0:0:0:0:0:0:1 - - [09/Nov/2021:15:05:44 -0300] "GET /rasz/app/login HTTP/1.1" 200 4970
0:0:0:0:0:0:0:1 - - [09/Nov/2021:15:05:44 -0300] "GET /rasz/resources/styles/rasz/bootstrap/css/bootstrap.min.css HTTP/1.1" 200 117295
0:0:0:0:0:0:0:1 - - [09/Nov/2021:15:05:44 -0300] "GET /rasz/resources/styles/rasz/dist/css/AdminLTE.css HTTP/1.1" 200 100217
0:0:0:0:0:0:0:1 - - [09/Nov/2021:15:05:44 -0300] "GET /rasz/resources/styles/rasz/dist/img/favicon.png HTTP/1.1" 200 2987
0:0:0:0:0:0:0:1 - - [09/Nov/2021:15:05:44 -0300] "GET /rasz/resources/styles/rasz/dist/css/skins/skin-rasz.css HTTP/1.1" 200 10330
0:0:0:0:0:0:0:1 - - [09/Nov/2021:15:05:44 -0300] "GET /rasz/resources/styles/rasz/bootstrap/js/bootstrap.min.js HTTP/1.1" 200 35951
0:0:0:0:0:0:0:1 - - [09/Nov/2021:15:05:44 -0300] "GET /rasz/resources/styles/rasz/dist/img/hg-logo.png HTTP/1.1" 200 10150
0:0:0:0:0:0:0:1 - - [09/Nov/2021:15:05:44 -0300] "GET /rasz/resources/images/login.png HTTP/1.1" 200 3921
0:0:0:0:0:0:0:1 - - [09/Nov/2021:15:05:44 -0300] "GET /rasz/resources/styles/rasz/dist/js/app.min.js HTTP/1.1" 302 -
0:0:0:0:0:0:0:1 - - [09/Nov/2021:15:05:44 -0300] "GET /rasz/app/erro_404?execution=e1s1 HTTP/1.1" 302 -
0:0:0:0:0:0:0:1 - - [09/Nov/2021:15:05:44 -0300] "GET /rasz/app/login HTTP/1.1" 200 4970
0:0:0:0:0:0:0:1 - - [09/Nov/2021:15:05:49 -0300] "POST /rasz/app/j_spring_security_check HTTP/1.1" 302 -
0:0:0:0:0:0:0:1 - - [09/Nov/2021:15:05:49 -0300] "GET /rasz/app/home HTTP/1.1" 302 -
0:0:0:0:0:0:0:1 - - [09/Nov/2021:15:05:49 -0300] "GET /rasz/app/home?execution=e2s1 HTTP/1.1" 200 7676
0:0:0:0:0:0:0:1 - - [09/Nov/2021:15:05:51 -0300] "GET /rasz/app/set_change_password HTTP/1.1" 302 -
0:0:0:0:0:0:0:1 - - [09/Nov/2021:15:05:51 -0300] "GET /rasz/app/set_change_password?execution=e3s1 HTTP/1.1" 200 10444
0:0:0:0:0:0:0:1 - - [09/Nov/2021:15:05:54 -0300] "POST /rasz/app/set_change_password?execution=e3s1 HTTP/1.1" 200 185
0:0:0:0:0:0:0:1 - - [09/Nov/2021:15:05:54 -0300] "POST /rasz/app/set_change_password?execution=e3s1 HTTP/1.1" 200 170
0:0:0:0:0:0:0:1 - - [09/Nov/2021:15:05:54 -0300] "GET /rasz/app/set_change_password?execution=e3s2 HTTP/1.1" 200 11463
0:0:0:0:0:0:0:1 - - [09/Nov/2021:15:05:57 -0300] "POST /rasz/app/set_change_password?execution=e3s2 HTTP/1.1" 200 261
0:0:0:0:0:0:0:1 - - [09/Nov/2021:15:06:00 -0300] "POST /rasz/app/set_change_password?execution=e3s2 HTTP/1.1" 200 185
0:0:0:0:0:0:0:1 - - [09/Nov/2021:15:06:06 -0300] "POST /rasz/app/set_change_password?execution=e3s2 HTTP/1.1" 200 185
0:0:0:0:0:0:0:1 - - [09/Nov/2021:15:06:37 -0300] "GET /rasz/app/set_change_password?execution=e3s2 HTTP/1.1" 200 11477
0:0:0:0:0:0:0:1 - - [09/Nov/2021:15:06:37 -0300] "GET /rasz/resources/styles/rasz/bootstrap/css/bootstrap.min.css HTTP/1.1" 200 117295
0:0:0:0:0:0:0:1 - - [09/Nov/2021:15:06:37 -0300] "GET /rasz/resources/styles/rasz/dist/css/AdminLTE.css HTTP/1.1" 200 100217
0:0:0:0:0:0:0:1 - - [09/Nov/2021:15:06:37 -0300] "GET /rasz/resources/styles/rasz/dist/css/skins/skin-rasz.css HTTP/1.1" 200 10330
0:0:0:0:0:0:0:1 - - [09/Nov/2021:15:06:37 -0300] "GET /rasz/app/javax.faces.resource/jquery/jquery.js?ln=primefaces&v=5.3 HTTP/1.1" 200 107783
0:0:0:0:0:0:0:1 - - [09/Nov/2021:15:06:37 -0300] "GET /rasz/app/javax.faces.resource/jquery/jquery-plugins.js?ln=primefaces&v=5.3 HTTP/1.1" 200 243000
0:0:0:0:0:0:0:1 - - [09/Nov/2021:15:06:37 -0300] "GET /rasz/app/javax.faces.resource/primefaces.js?ln=primefaces&v=5.3 HTTP/1.1" 200 350170
0:0:0:0:0:0:0:1 - - [09/Nov/2021:15:06:37 -0300] "GET /rasz/resources/styles/estilo.css HTTP/1.1" 200 10883
0:0:0:0:0:0:0:1 - - [09/Nov/2021:15:06:37 -0300] "GET /rasz/app/javax.faces.resource/calendario_pt_BR.js?ln=js HTTP/1.1" 200 925
0:0:0:0:0:0:0:1 - - [09/Nov/2021:15:06:37 -0300] "GET /rasz/app/javax.faces.resource/theme.css?ln=primefaces-bootstrap HTTP/1.1" 200 34898
0:0:0:0:0:0:0:1 - - [09/Nov/2021:15:06:37 -0300] "GET /rasz/app/javax.faces.resource/primefaces.css?ln=primefaces&v=5.3 HTTP/1.1" 200 70743
0:0:0:0:0:0:0:1 - - [09/Nov/2021:15:06:37 -0300] "GET /rasz/resources/styles/rasz/bootstrap/js/bootstrap.min.js HTTP/1.1" 200 35951
0:0:0:0:0:0:0:1 - - [09/Nov/2021:15:06:37 -0300] "GET /rasz/resources/styles/rasz/dist/js/app.js HTTP/1.1" 200 20841
0:0:0:0:0:0:0:1 - - [09/Nov/2021:15:06:37 -0300] "GET /rasz/resources/styles/rasz/dist/img/favicon.png HTTP/1.1" 200 2987
0:0:0:0:0:0:0:1 - - [09/Nov/2021:15:06:37 -0300] "GET /rasz/resources/styles/rasz/dist/img/hg-logo.png HTTP/1.1" 200 10150
0:0:0:0:0:0:0:1 - - [09/Nov/2021:15:06:37 -0300] "GET /rasz/resources/styles/rasz/dist/img/logout.png HTTP/1.1" 200 2100
0:0:0:0:0:0:0:1 - - [09/Nov/2021:15:06:37 -0300] "GET /rasz/resources/styles/rasz/dist/img/user.png HTTP/1.1" 200 13950
0:0:0:0:0:0:0:1 - - [09/Nov/2021:15:06:37 -0300] "GET /rasz/resources/styles/rasz/dist/img/user_white.png HTTP/1.1" 200 5751
0:0:0:0:0:0:0:1 - - [09/Nov/2021:15:06:37 -0300] "GET /rasz/app/javax.faces.resource/spacer/dot_clear.gif?ln=primefaces&v=5.3 HTTP/1.1" 200 42
0:0:0:0:0:0:0:1 - - [09/Nov/2021:15:06:38 -0300] "GET /rasz/resources/images/iconehome.png HTTP/1.1" 200 459
0:0:0:0:0:0:0:1 - - [09/Nov/2021:15:06:38 -0300] "GET /rasz/resources/images/save.png HTTP/1.1" 200 268
0:0:0:0:0:0:0:1 - - [09/Nov/2021:15:06:38 -0300] "GET /rasz/resources/styles/rasz/dist/img/favicon_white.png HTTP/1.1" 200 545
0:0:0:0:0:0:0:1 - - [09/Nov/2021:15:06:38 -0300] "GET /rasz/app/set_change_password?execution=e3s2 HTTP/1.1" 500 27748
0:0:0:0:0:0:0:1 - - [09/Nov/2021:15:06:38 -0300] "GET /favicon.ico HTTP/1.1" 404 1016
0:0:0:0:0:0:0:1 - - [09/Nov/2021:15:06:39 -0300] "GET /rasz/app/set_change_password?execution=e3s2 HTTP/1.1" 500 27748
0:0:0:0:0:0:0:1 - - [09/Nov/2021:15:06:39 -0300] "GET /favicon.ico HTTP/1.1" 404 1016
0:0:0:0:0:0:0:1 - - [09/Nov/2021:15:06:45 -0300] "GET /rasz/app/set_change_password?execution=e3s2 HTTP/1.1" 500 27748
0:0:0:0:0:0:0:1 - - [09/Nov/2021:15:06:46 -0300] "GET /favicon.ico HTTP/1.1" 404 1016
0:0:0:0:0:0:0:1 - - [09/Nov/2021:15:06:46 -0300] "GET /rasz/app/set_change_password?execution=e3s2 HTTP/1.1" 200 11477
0:0:0:0:0:0:0:1 - - [09/Nov/2021:15:06:46 -0300] "GET /rasz/resources/styles/rasz/bootstrap/css/bootstrap.min.css HTTP/1.1" 200 117295
0:0:0:0:0:0:0:1 - - [09/Nov/2021:15:06:46 -0300] "GET /rasz/app/javax.faces.resource/jquery/jquery.js?ln=primefaces&v=5.3 HTTP/1.1" 200 107783
0:0:0:0:0:0:0:1 - - [09/Nov/2021:15:06:46 -0300] "GET /rasz/app/javax.faces.resource/jquery/jquery-plugins.js?ln=primefaces&v=5.3 HTTP/1.1" 200 243000
0:0:0:0:0:0:0:1 - - [09/Nov/2021:15:06:46 -0300] "GET /rasz/resources/styles/rasz/dist/css/skins/skin-rasz.css HTTP/1.1" 200 10330
0:0:0:0:0:0:0:1 - - [09/Nov/2021:15:06:46 -0300] "GET /rasz/resources/styles/rasz/dist/css/AdminLTE.css HTTP/1.1" 200 100217
0:0:0:0:0:0:0:1 - - [09/Nov/2021:15:06:46 -0300] "GET /rasz/app/javax.faces.resource/primefaces.js?ln=primefaces&v=5.3 HTTP/1.1" 200 350170
0:0:0:0:0:0:0:1 - - [09/Nov/2021:15:06:46 -0300] "GET /rasz/app/javax.faces.resource/theme.css?ln=primefaces-bootstrap HTTP/1.1" 200 34898
0:0:0:0:0:0:0:1 - - [09/Nov/2021:15:06:46 -0300] "GET /rasz/resources/styles/estilo.css HTTP/1.1" 200 10883
0:0:0:0:0:0:0:1 - - [09/Nov/2021:15:06:46 -0300] "GET /rasz/app/javax.faces.resource/calendario_pt_BR.js?ln=js HTTP/1.1" 200 925
0:0:0:0:0:0:0:1 - - [09/Nov/2021:15:06:46 -0300] "GET /rasz/app/javax.faces.resource/primefaces.css?ln=primefaces&v=5.3 HTTP/1.1" 200 70743
0:0:0:0:0:0:0:1 - - [09/Nov/2021:15:06:46 -0300] "GET /rasz/resources/styles/rasz/bootstrap/js/bootstrap.min.js HTTP/1.1" 200 35951
0:0:0:0:0:0:0:1 - - [09/Nov/2021:15:06:46 -0300] "GET /rasz/resources/styles/rasz/dist/js/app.js HTTP/1.1" 200 20841
0:0:0:0:0:0:0:1 - - [09/Nov/2021:15:06:46 -0300] "GET /rasz/resources/styles/rasz/dist/img/favicon.png HTTP/1.1" 200 2987
0:0:0:0:0:0:0:1 - - [09/Nov/2021:15:06:46 -0300] "GET /rasz/resources/styles/rasz/dist/img/hg-logo.png HTTP/1.1" 200 10150
0:0:0:0:0:0:0:1 - - [09/Nov/2021:15:06:46 -0300] "GET /rasz/resources/styles/rasz/dist/img/logout.png HTTP/1.1" 200 2100
0:0:0:0:0:0:0:1 - - [09/Nov/2021:15:06:46 -0300] "GET /rasz/resources/styles/rasz/dist/img/user.png HTTP/1.1" 200 13950
0:0:0:0:0:0:0:1 - - [09/Nov/2021:15:06:46 -0300] "GET /rasz/resources/styles/rasz/dist/img/user_white.png HTTP/1.1" 200 5751
0:0:0:0:0:0:0:1 - - [09/Nov/2021:15:06:47 -0300] "GET /rasz/app/javax.faces.resource/spacer/dot_clear.gif?ln=primefaces&v=5.3 HTTP/1.1" 200 42
0:0:0:0:0:0:0:1 - - [09/Nov/2021:15:06:47 -0300] "GET /rasz/resources/images/save.png HTTP/1.1" 200 268
0:0:0:0:0:0:0:1 - - [09/Nov/2021:15:06:47 -0300] "GET /rasz/resources/images/iconehome.png HTTP/1.1" 200 459
0:0:0:0:0:0:0:1 - - [09/Nov/2021:15:06:47 -0300] "GET /rasz/resources/styles/rasz/dist/img/favicon_white.png HTTP/1.1" 200 545
0:0:0:0:0:0:0:1 - - [09/Nov/2021:15:06:51 -0300] "POST /rasz/app/set_change_password?execution=e3s2 HTTP/1.1" 200 185
0:0:0:0:0:0:0:1 - - [09/Nov/2021:15:06:59 -0300] "GET /rasz/app/set_change_password?execution=e3s2 HTTP/1.1" 200 11439
0:0:0:0:0:0:0:1 - - [09/Nov/2021:15:06:59 -0300] "GET /rasz/resources/styles/rasz/bootstrap/css/bootstrap.min.css HTTP/1.1" 200 117295
0:0:0:0:0:0:0:1 - - [09/Nov/2021:15:06:59 -0300] "GET /rasz/app/javax.faces.resource/jquery/jquery-plugins.js?ln=primefaces&v=5.3 HTTP/1.1" 200 243000
0:0:0:0:0:0:0:1 - - [09/Nov/2021:15:06:59 -0300] "GET /rasz/app/javax.faces.resource/jquery/jquery.js?ln=primefaces&v=5.3 HTTP/1.1" 200 107783
0:0:0:0:0:0:0:1 - - [09/Nov/2021:15:06:59 -0300] "GET /rasz/resources/styles/rasz/dist/css/AdminLTE.css HTTP/1.1" 200 100217
0:0:0:0:0:0:0:1 - - [09/Nov/2021:15:06:59 -0300] "GET /rasz/app/javax.faces.resource/primefaces.js?ln=primefaces&v=5.3 HTTP/1.1" 200 350170
0:0:0:0:0:0:0:1 - - [09/Nov/2021:15:06:59 -0300] "GET /rasz/app/javax.faces.resource/theme.css?ln=primefaces-bootstrap HTTP/1.1" 200 34898
0:0:0:0:0:0:0:1 - - [09/Nov/2021:15:06:59 -0300] "GET /rasz/resources/styles/rasz/dist/css/skins/skin-rasz.css HTTP/1.1" 200 10330
0:0:0:0:0:0:0:1 - - [09/Nov/2021:15:06:59 -0300] "GET /rasz/resources/styles/estilo.css HTTP/1.1" 200 10883
0:0:0:0:0:0:0:1 - - [09/Nov/2021:15:06:59 -0300] "GET /rasz/app/javax.faces.resource/primefaces.css?ln=primefaces&v=5.3 HTTP/1.1" 200 70743
0:0:0:0:0:0:0:1 - - [09/Nov/2021:15:06:59 -0300] "GET /rasz/app/javax.faces.resource/calendario_pt_BR.js?ln=js HTTP/1.1" 200 925
0:0:0:0:0:0:0:1 - - [09/Nov/2021:15:06:59 -0300] "GET /rasz/resources/styles/rasz/bootstrap/js/bootstrap.min.js HTTP/1.1" 200 35951
0:0:0:0:0:0:0:1 - - [09/Nov/2021:15:06:59 -0300] "GET /rasz/resources/styles/rasz/dist/js/app.js HTTP/1.1" 200 20841
0:0:0:0:0:0:0:1 - - [09/Nov/2021:15:06:59 -0300] "GET /rasz/resources/styles/rasz/dist/img/favicon.png HTTP/1.1" 200 2987
0:0:0:0:0:0:0:1 - - [09/Nov/2021:15:06:59 -0300] "GET /rasz/resources/styles/rasz/dist/img/hg-logo.png HTTP/1.1" 200 10150
0:0:0:0:0:0:0:1 - - [09/Nov/2021:15:06:59 -0300] "GET /rasz/resources/styles/rasz/dist/img/logout.png HTTP/1.1" 200 2100
0:0:0:0:0:0:0:1 - - [09/Nov/2021:15:06:59 -0300] "GET /rasz/resources/styles/rasz/dist/img/user.png HTTP/1.1" 200 13950
0:0:0:0:0:0:0:1 - - [09/Nov/2021:15:06:59 -0300] "GET /rasz/resources/styles/rasz/dist/img/user_white.png HTTP/1.1" 200 5751
0:0:0:0:0:0:0:1 - - [09/Nov/2021:15:06:59 -0300] "GET /rasz/app/javax.faces.resource/spacer/dot_clear.gif?ln=primefaces&v=5.3 HTTP/1.1" 200 42
0:0:0:0:0:0:0:1 - - [09/Nov/2021:15:06:59 -0300] "GET /rasz/resources/images/save.png HTTP/1.1" 200 268
0:0:0:0:0:0:0:1 - - [09/Nov/2021:15:06:59 -0300] "GET /rasz/resources/images/iconehome.png HTTP/1.1" 200 459
0:0:0:0:0:0:0:1 - - [09/Nov/2021:15:07:00 -0300] "GET /rasz/resources/styles/rasz/dist/img/favicon_white.png HTTP/1.1" 200 545
0:0:0:0:0:0:0:1 - - [09/Nov/2021:15:07:00 -0300] "GET /rasz/app/set_change_password?execution=e3s2 HTTP/1.1" 200 11439
0:0:0:0:0:0:0:1 - - [09/Nov/2021:15:07:00 -0300] "GET /rasz/resources/styles/rasz/bootstrap/css/bootstrap.min.css HTTP/1.1" 200 117295
0:0:0:0:0:0:0:1 - - [09/Nov/2021:15:07:00 -0300] "GET /rasz/app/javax.faces.resource/jquery/jquery-plugins.js?ln=primefaces&v=5.3 HTTP/1.1" 200 243000
0:0:0:0:0:0:0:1 - - [09/Nov/2021:15:07:00 -0300] "GET /rasz/app/javax.faces.resource/jquery/jquery.js?ln=primefaces&v=5.3 HTTP/1.1" 200 107783
0:0:0:0:0:0:0:1 - - [09/Nov/2021:15:07:00 -0300] "GET /rasz/resources/styles/rasz/dist/css/AdminLTE.css HTTP/1.1" 200 100217
0:0:0:0:0:0:0:1 - - [09/Nov/2021:15:07:00 -0300] "GET /rasz/app/javax.faces.resource/primefaces.js?ln=primefaces&v=5.3 HTTP/1.1" 200 350170
0:0:0:0:0:0:0:1 - - [09/Nov/2021:15:07:00 -0300] "GET /rasz/app/javax.faces.resource/theme.css?ln=primefaces-bootstrap HTTP/1.1" 200 34898
0:0:0:0:0:0:0:1 - - [09/Nov/2021:15:07:00 -0300] "GET /rasz/resources/styles/rasz/dist/css/skins/skin-rasz.css HTTP/1.1" 200 10330
0:0:0:0:0:0:0:1 - - [09/Nov/2021:15:07:00 -0300] "GET /rasz/resources/styles/estilo.css HTTP/1.1" 200 10883
0:0:0:0:0:0:0:1 - - [09/Nov/2021:15:07:00 -0300] "GET /rasz/app/javax.faces.resource/calendario_pt_BR.js?ln=js HTTP/1.1" 200 925
0:0:0:0:0:0:0:1 - - [09/Nov/2021:15:07:00 -0300] "GET /rasz/app/javax.faces.resource/primefaces.css?ln=primefaces&v=5.3 HTTP/1.1" 200 70743
0:0:0:0:0:0:0:1 - - [09/Nov/2021:15:07:00 -0300] "GET /rasz/resources/styles/rasz/bootstrap/js/bootstrap.min.js HTTP/1.1" 200 35951
0:0:0:0:0:0:0:1 - - [09/Nov/2021:15:07:00 -0300] "GET /rasz/resources/styles/rasz/dist/js/app.js HTTP/1.1" 200 20841
0:0:0:0:0:0:0:1 - - [09/Nov/2021:15:07:00 -0300] "GET /rasz/resources/styles/rasz/dist/img/favicon.png HTTP/1.1" 200 2987
0:0:0:0:0:0:0:1 - - [09/Nov/2021:15:07:00 -0300] "GET /rasz/resources/styles/rasz/dist/img/hg-logo.png HTTP/1.1" 200 10150
0:0:0:0:0:0:0:1 - - [09/Nov/2021:15:07:00 -0300] "GET /rasz/resources/styles/rasz/dist/img/logout.png HTTP/1.1" 200 2100
0:0:0:0:0:0:0:1 - - [09/Nov/2021:15:07:00 -0300] "GET /rasz/resources/styles/rasz/dist/img/user.png HTTP/1.1" 200 13950
0:0:0:0:0:0:0:1 - - [09/Nov/2021:15:07:00 -0300] "GET /rasz/resources/styles/rasz/dist/img/user_white.png HTTP/1.1" 200 5751
0:0:0:0:0:0:0:1 - - [09/Nov/2021:15:07:00 -0300] "GET /rasz/app/javax.faces.resource/spacer/dot_clear.gif?ln=primefaces&v=5.3 HTTP/1.1" 200 42
0:0:0:0:0:0:0:1 - - [09/Nov/2021:15:07:00 -0300] "GET /rasz/resources/images/iconehome.png HTTP/1.1" 200 459
0:0:0:0:0:0:0:1 - - [09/Nov/2021:15:07:00 -0300] "GET /rasz/resources/images/save.png HTTP/1.1" 200 268
0:0:0:0:0:0:0:1 - - [09/Nov/2021:15:07:00 -0300] "GET /rasz/resources/styles/rasz/dist/img/favicon_white.png HTTP/1.1" 200 545
0:0:0:0:0:0:0:1 - - [09/Nov/2021:15:07:03 -0300] "POST /rasz/app/set_change_password?execution=e3s2 HTTP/1.1" 200 185
0:0:0:0:0:0:0:1 - - [09/Nov/2021:15:07:03 -0300] "POST /rasz/app/set_change_password?execution=e3s2 HTTP/1.1" 500 25776
127.0.0.1 - - [09/Nov/2021:15:09:04 -0300] "GET / HTTP/1.1" 404 994
0:0:0:0:0:0:0:1 - - [09/Nov/2021:15:09:46 -0300] "GET /rasz/app/set_change_password?execution=e3s2 HTTP/1.1" 302 -
0:0:0:0:0:0:0:1 - - [09/Nov/2021:15:09:47 -0300] "GET /rasz/app/login HTTP/1.1" 200 4970
0:0:0:0:0:0:0:1 - - [09/Nov/2021:15:09:47 -0300] "GET /rasz/resources/styles/rasz/dist/css/skins/skin-rasz.css HTTP/1.1" 200 10330
0:0:0:0:0:0:0:1 - - [09/Nov/2021:15:09:47 -0300] "GET /rasz/resources/styles/rasz/dist/css/AdminLTE.css HTTP/1.1" 200 100217
0:0:0:0:0:0:0:1 - - [09/Nov/2021:15:09:47 -0300] "GET /rasz/resources/styles/rasz/bootstrap/js/bootstrap.min.js HTTP/1.1" 200 35951
0:0:0:0:0:0:0:1 - - [09/Nov/2021:15:09:47 -0300] "GET /rasz/resources/styles/rasz/dist/img/favicon.png HTTP/1.1" 200 2987
0:0:0:0:0:0:0:1 - - [09/Nov/2021:15:09:47 -0300] "GET /rasz/resources/styles/rasz/bootstrap/css/bootstrap.min.css HTTP/1.1" 200 117295
0:0:0:0:0:0:0:1 - - [09/Nov/2021:15:09:47 -0300] "GET /rasz/resources/styles/rasz/dist/img/hg-logo.png HTTP/1.1" 200 10150
0:0:0:0:0:0:0:1 - - [09/Nov/2021:15:09:47 -0300] "GET /rasz/resources/images/login.png HTTP/1.1" 200 3921
0:0:0:0:0:0:0:1 - - [09/Nov/2021:15:09:47 -0300] "GET /rasz/resources/styles/rasz/dist/js/app.min.js HTTP/1.1" 302 -
0:0:0:0:0:0:0:1 - - [09/Nov/2021:15:09:47 -0300] "GET /rasz/app/erro_404?execution=e1s1 HTTP/1.1" 302 -
0:0:0:0:0:0:0:1 - - [09/Nov/2021:15:09:47 -0300] "GET /rasz/app/login HTTP/1.1" 200 4970
0:0:0:0:0:0:0:1 - - [09/Nov/2021:15:09:50 -0300] "GET /rasz/app/login HTTP/1.1" 200 4970
0:0:0:0:0:0:0:1 - - [09/Nov/2021:15:09:50 -0300] "GET /rasz/resources/styles/rasz/bootstrap/css/bootstrap.min.css HTTP/1.1" 200 117295
0:0:0:0:0:0:0:1 - - [09/Nov/2021:15:09:50 -0300] "GET /rasz/resources/styles/rasz/dist/css/skins/skin-rasz.css HTTP/1.1" 200 10330
0:0:0:0:0:0:0:1 - - [09/Nov/2021:15:09:50 -0300] "GET /rasz/resources/styles/rasz/dist/css/AdminLTE.css HTTP/1.1" 200 100217
0:0:0:0:0:0:0:1 - - [09/Nov/2021:15:09:50 -0300] "GET /rasz/resources/styles/rasz/bootstrap/js/bootstrap.min.js HTTP/1.1" 200 35951
0:0:0:0:0:0:0:1 - - [09/Nov/2021:15:09:50 -0300] "GET /rasz/resources/styles/rasz/dist/img/favicon.png HTTP/1.1" 200 2987
0:0:0:0:0:0:0:1 - - [09/Nov/2021:15:09:50 -0300] "GET /rasz/resources/styles/rasz/dist/img/hg-logo.png HTTP/1.1" 200 10150
0:0:0:0:0:0:0:1 - - [09/Nov/2021:15:09:50 -0300] "GET /rasz/resources/styles/rasz/dist/js/app.min.js HTTP/1.1" 302 -
0:0:0:0:0:0:0:1 - - [09/Nov/2021:15:09:50 -0300] "GET /rasz/resources/images/login.png HTTP/1.1" 200 3921
0:0:0:0:0:0:0:1 - - [09/Nov/2021:15:09:50 -0300] "GET /rasz/app/erro_404?execution=e2s1 HTTP/1.1" 302 -
0:0:0:0:0:0:0:1 - - [09/Nov/2021:15:09:50 -0300] "GET /rasz/app/login HTTP/1.1" 200 4970
0:0:0:0:0:0:0:1 - - [09/Nov/2021:15:09:50 -0300] "GET /rasz/resources/styles/rasz/dist/img/favicon_white.png HTTP/1.1" 200 545
0:0:0:0:0:0:0:1 - - [09/Nov/2021:15:09:51 -0300] "POST /rasz/app/j_spring_security_check HTTP/1.1" 302 -
0:0:0:0:0:0:0:1 - - [09/Nov/2021:15:09:51 -0300] "GET /rasz/app/home HTTP/1.1" 302 -
0:0:0:0:0:0:0:1 - - [09/Nov/2021:15:09:51 -0300] "GET /rasz/app/home?execution=e3s1 HTTP/1.1" 200 7676
0:0:0:0:0:0:0:1 - - [09/Nov/2021:15:09:54 -0300] "GET /rasz/app/set_change_password HTTP/1.1" 302 -
0:0:0:0:0:0:0:1 - - [09/Nov/2021:15:09:54 -0300] "GET /rasz/app/set_change_password?execution=e4s1 HTTP/1.1" 200 10444
0:0:0:0:0:0:0:1 - - [09/Nov/2021:15:09:56 -0300] "POST /rasz/app/set_change_password?execution=e4s1 HTTP/1.1" 200 185
0:0:0:0:0:0:0:1 - - [09/Nov/2021:15:09:56 -0300] "POST /rasz/app/set_change_password?execution=e4s1 HTTP/1.1" 200 170
0:0:0:0:0:0:0:1 - - [09/Nov/2021:15:09:56 -0300] "GET /rasz/app/set_change_password?execution=e4s2 HTTP/1.1" 200 11425
0:0:0:0:0:0:0:1 - - [09/Nov/2021:15:09:59 -0300] "POST /rasz/app/set_change_password?execution=e4s2 HTTP/1.1" 200 261
0:0:0:0:0:0:0:1 - - [09/Nov/2021:15:10:04 -0300] "POST /rasz/app/set_change_password?execution=e4s2 HTTP/1.1" 200 185
0:0:0:0:0:0:0:1 - - [09/Nov/2021:15:10:50 -0300] "POST /rasz/app/set_change_password?execution=e4s2 HTTP/1.1" 200 170
0:0:0:0:0:0:0:1 - - [09/Nov/2021:15:10:50 -0300] "POST /rasz/app/set_change_password?execution=e4s2 HTTP/1.1" 200 190
0:0:0:0:0:0:0:1 - - [09/Nov/2021:15:10:50 -0300] "GET /rasz/app/set_change_password?execution=e4s3 HTTP/1.1" 200 10444
127.0.0.1 - - [09/Nov/2021:15:11:39 -0300] "GET / HTTP/1.1" 404 994
0:0:0:0:0:0:0:1 - - [09/Nov/2021:15:30:01 -0300] "GET /rasz/app/set_change_password?execution=e4s3 HTTP/1.1" 302 -
0:0:0:0:0:0:0:1 - - [09/Nov/2021:15:30:01 -0300] "GET /rasz/app/login HTTP/1.1" 200 4970
0:0:0:0:0:0:0:1 - - [09/Nov/2021:15:30:01 -0300] "GET /rasz/resources/styles/rasz/dist/css/skins/skin-rasz.css HTTP/1.1" 200 10330
0:0:0:0:0:0:0:1 - - [09/Nov/2021:15:30:01 -0300] "GET /rasz/resources/styles/rasz/bootstrap/css/bootstrap.min.css HTTP/1.1" 200 117295
0:0:0:0:0:0:0:1 - - [09/Nov/2021:15:30:01 -0300] "GET /rasz/resources/styles/rasz/dist/img/favicon.png HTTP/1.1" 200 2987
0:0:0:0:0:0:0:1 - - [09/Nov/2021:15:30:01 -0300] "GET /rasz/resources/styles/rasz/dist/img/hg-logo.png HTTP/1.1" 200 10150
0:0:0:0:0:0:0:1 - - [09/Nov/2021:15:30:01 -0300] "GET /rasz/resources/styles/rasz/dist/css/AdminLTE.css HTTP/1.1" 200 100217
0:0:0:0:0:0:0:1 - - [09/Nov/2021:15:30:01 -0300] "GET /rasz/resources/styles/rasz/bootstrap/js/bootstrap.min.js HTTP/1.1" 200 35951
0:0:0:0:0:0:0:1 - - [09/Nov/2021:15:30:01 -0300] "GET /rasz/resources/images/login.png HTTP/1.1" 200 3921
0:0:0:0:0:0:0:1 - - [09/Nov/2021:15:30:01 -0300] "GET /rasz/resources/styles/rasz/dist/js/app.min.js HTTP/1.1" 302 -
0:0:0:0:0:0:0:1 - - [09/Nov/2021:15:30:01 -0300] "GET /rasz/app/erro_404?execution=e1s1 HTTP/1.1" 302 -
0:0:0:0:0:0:0:1 - - [09/Nov/2021:15:30:01 -0300] "GET /rasz/app/login HTTP/1.1" 200 4970
0:0:0:0:0:0:0:1 - - [09/Nov/2021:15:30:02 -0300] "POST /rasz/app/j_spring_security_check HTTP/1.1" 302 -
0:0:0:0:0:0:0:1 - - [09/Nov/2021:15:30:02 -0300] "GET /rasz/app/login?login_error=1 HTTP/1.1" 200 5051
0:0:0:0:0:0:0:1 - - [09/Nov/2021:15:30:02 -0300] "GET /rasz/resources/styles/rasz/dist/js/app.min.js HTTP/1.1" 302 -
0:0:0:0:0:0:0:1 - - [09/Nov/2021:15:30:02 -0300] "GET /rasz/app/erro_404?execution=e2s1 HTTP/1.1" 302 -
0:0:0:0:0:0:0:1 - - [09/Nov/2021:15:30:02 -0300] "GET /rasz/app/login HTTP/1.1" 200 4970
0:0:0:0:0:0:0:1 - - [09/Nov/2021:15:30:09 -0300] "POST /rasz/app/j_spring_security_check HTTP/1.1" 302 -
0:0:0:0:0:0:0:1 - - [09/Nov/2021:15:30:09 -0300] "GET /rasz/app/home HTTP/1.1" 302 -
0:0:0:0:0:0:0:1 - - [09/Nov/2021:15:30:10 -0300] "GET /rasz/app/home?execution=e3s1 HTTP/1.1" 200 7676
0:0:0:0:0:0:0:1 - - [09/Nov/2021:15:30:22 -0300] "GET /rasz/app/logout HTTP/1.1" 302 -
0:0:0:0:0:0:0:1 - - [09/Nov/2021:15:30:22 -0300] "GET /rasz/app/home HTTP/1.1" 302 -
0:0:0:0:0:0:0:1 - - [09/Nov/2021:15:30:22 -0300] "GET /rasz/app/login HTTP/1.1" 200 4970
0:0:0:0:0:0:0:1 - - [09/Nov/2021:15:30:22 -0300] "GET /rasz/resources/styles/rasz/dist/js/app.min.js HTTP/1.1" 302 -
0:0:0:0:0:0:0:1 - - [09/Nov/2021:15:30:22 -0300] "GET /rasz/app/erro_404?execution=e1s1 HTTP/1.1" 302 -
0:0:0:0:0:0:0:1 - - [09/Nov/2021:15:30:22 -0300] "GET /rasz/app/login HTTP/1.1" 200 4970
0:0:0:0:0:0:0:1 - - [09/Nov/2021:15:30:23 -0300] "POST /rasz/app/j_spring_security_check HTTP/1.1" 302 -
0:0:0:0:0:0:0:1 - - [09/Nov/2021:15:30:23 -0300] "GET /rasz/app/login?login_error=1 HTTP/1.1" 200 5051
0:0:0:0:0:0:0:1 - - [09/Nov/2021:15:30:23 -0300] "GET /rasz/resources/styles/rasz/dist/js/app.min.js HTTP/1.1" 302 -
0:0:0:0:0:0:0:1 - - [09/Nov/2021:15:30:23 -0300] "GET /rasz/app/erro_404?execution=e2s1 HTTP/1.1" 302 -
0:0:0:0:0:0:0:1 - - [09/Nov/2021:15:30:23 -0300] "GET /rasz/app/login HTTP/1.1" 200 4970
0:0:0:0:0:0:0:1 - - [09/Nov/2021:15:30:27 -0300] "POST /rasz/app/j_spring_security_check HTTP/1.1" 302 -
0:0:0:0:0:0:0:1 - - [09/Nov/2021:15:30:27 -0300] "GET /rasz/app/home HTTP/1.1" 302 -
0:0:0:0:0:0:0:1 - - [09/Nov/2021:15:30:27 -0300] "GET /rasz/app/home?execution=e3s1 HTTP/1.1" 200 7676
0:0:0:0:0:0:0:1 - - [09/Nov/2021:15:30:54 -0300] "GET /rasz/app/logout HTTP/1.1" 302 -
0:0:0:0:0:0:0:1 - - [09/Nov/2021:15:30:54 -0300] "GET /rasz/app/home HTTP/1.1" 302 -
0:0:0:0:0:0:0:1 - - [09/Nov/2021:15:30:54 -0300] "GET /rasz/app/login HTTP/1.1" 200 4968
0:0:0:0:0:0:0:1 - - [09/Nov/2021:15:30:54 -0300] "GET /rasz/resources/styles/rasz/dist/js/app.min.js HTTP/1.1" 302 -
0:0:0:0:0:0:0:1 - - [09/Nov/2021:15:30:54 -0300] "GET /rasz/app/erro_404?execution=e1s1 HTTP/1.1" 302 -
0:0:0:0:0:0:0:1 - - [09/Nov/2021:15:30:54 -0300] "GET /rasz/app/login HTTP/1.1" 200 4968
0:0:0:0:0:0:0:1 - - [09/Nov/2021:15:30:55 -0300] "GET /rasz/app/login HTTP/1.1" 200 4968
0:0:0:0:0:0:0:1 - - [09/Nov/2021:15:30:55 -0300] "GET /rasz/resources/styles/rasz/bootstrap/css/bootstrap.min.css HTTP/1.1" 200 117295
0:0:0:0:0:0:0:1 - - [09/Nov/2021:15:30:55 -0300] "GET /rasz/resources/styles/rasz/bootstrap/js/bootstrap.min.js HTTP/1.1" 200 35951
0:0:0:0:0:0:0:1 - - [09/Nov/2021:15:30:55 -0300] "GET /rasz/resources/styles/rasz/dist/css/skins/skin-rasz.css HTTP/1.1" 200 10330
0:0:0:0:0:0:0:1 - - [09/Nov/2021:15:30:55 -0300] "GET /rasz/resources/styles/rasz/dist/css/AdminLTE.css HTTP/1.1" 200 100217
0:0:0:0:0:0:0:1 - - [09/Nov/2021:15:30:55 -0300] "GET /rasz/resources/styles/rasz/dist/img/favicon.png HTTP/1.1" 200 2987
0:0:0:0:0:0:0:1 - - [09/Nov/2021:15:30:55 -0300] "GET /rasz/resources/styles/rasz/dist/js/app.min.js HTTP/1.1" 302 -
0:0:0:0:0:0:0:1 - - [09/Nov/2021:15:30:55 -0300] "GET /rasz/resources/images/login.png HTTP/1.1" 200 3921
0:0:0:0:0:0:0:1 - - [09/Nov/2021:15:30:55 -0300] "GET /rasz/resources/styles/rasz/dist/img/hg-logo.png HTTP/1.1" 200 10150
0:0:0:0:0:0:0:1 - - [09/Nov/2021:15:30:55 -0300] "GET /rasz/app/erro_404?execution=e2s1 HTTP/1.1" 302 -
0:0:0:0:0:0:0:1 - - [09/Nov/2021:15:30:55 -0300] "GET /rasz/app/login HTTP/1.1" 200 4968
0:0:0:0:0:0:0:1 - - [09/Nov/2021:15:30:55 -0300] "GET /rasz/resources/styles/rasz/dist/img/favicon_white.png HTTP/1.1" 200 545
0:0:0:0:0:0:0:1 - - [09/Nov/2021:15:30:57 -0300] "POST /rasz/app/j_spring_security_check HTTP/1.1" 302 -
0:0:0:0:0:0:0:1 - - [09/Nov/2021:15:30:57 -0300] "GET /rasz/app/home HTTP/1.1" 302 -
0:0:0:0:0:0:0:1 - - [09/Nov/2021:15:30:57 -0300] "GET /rasz/app/home?execution=e3s1 HTTP/1.1" 200 7676
0:0:0:0:0:0:0:1 - - [09/Nov/2021:15:33:20 -0300] "GET /rasz/app/set_change_password HTTP/1.1" 302 -
0:0:0:0:0:0:0:1 - - [09/Nov/2021:15:33:20 -0300] "GET /rasz/app/set_change_password?execution=e4s1 HTTP/1.1" 200 10444
0:0:0:0:0:0:0:1 - - [09/Nov/2021:15:33:25 -0300] "POST /rasz/app/set_change_password?execution=e4s1 HTTP/1.1" 200 261
0:0:0:0:0:0:0:1 - - [09/Nov/2021:15:33:30 -0300] "POST /rasz/app/set_change_password?execution=e4s1 HTTP/1.1" 200 185
